{"_id"=>"40444444444444440443424001121110111101102101110110111",
 "choices"=>
  [4.0,
   0.0,
   4.0,
   4.0,
   4.0,
   4.0,
   4.0,
   4.0,
   4.0,
   4.0,
   4.0,
   4.0,
   4.0,
   4.0,
   4.0,
   4.0,
   0.0,
   4.0,
   4.0,
   3.0,
   4.0,
   2.0,
   4.0,
   0.0,
   0.0,
   1.0,
   1.0,
   2.0,
   1.0,
   1.0,
   1.0,
   0.0,
   1.0,
   1.0,
   1.0,
   1.0,
   0.0,
   1.0,
   1.0,
   0.0,
   2.0,
   1.0,
   0.0,
   1.0,
   1.0,
   1.0,
   0.0,
   1.0,
   1.0,
   0.0,
   1.0,
   1.0,
   1.0],
 "sankey"=>
  [["From",
    "To",
    "2011",
    "2015",
    "2020",
    "2025",
    "2030",
    "2035",
    "2040",
    "2045",
    "2050"],
   ["Oil production",
    "Oil",
    511.25480000000005,
    1989.6604000000002,
    4278.76102675,
    6317.511729578849,
    8393.142932491666,
    11096.240848670144,
    13461.771211312227,
    15338.03952651133,
    16820.219467807427],
   ["Oil imports",
    "Oil",
    -0.0,
    -38648.59782260773,
    -46893.87911284168,
    -45144.82712444721,
    -53836.16964068799,
    -51689.94929445535,
    -60516.448148833006,
    -60428.731228380115,
    -74145.43867564923],
   ["Gas production",
    "Natural gas",
    2240.1019357821997,
    3267.0362865126,
    7935.043273054551,
    12581.946165986907,
    16723.64695816603,
    20321.72636169259,
    23251.93998198362,
    25402.435544406515,
    26980.692887822002],
   ["Gas imports",
    "Natural gas",
    1226.2905921106335,
    1880.1611175511089,
    6098.173763839454,
    10374.742794977523,
    13862.603337949276,
    16579.25887571968,
    18460.2014270731,
    19304.158211282942,
    18820.94469479543],
   ["Coal production",
    "Coal",
    2.2564544444444445,
    10.722917339297778,
    14.655059979849515,
    16.180370393496403,
    17.864436340125025,
    19.723781223120493,
    25.87916365610342,
    24.043179252181265,
    26.54561266022986],
   ["Coal import",
    "Coal",
    -0.0,
    -0.0,
    -0.0,
    -0.0,
    -0.0,
    -0.0,
    -0.0,
    -0.0,
    -0.0],
   ["Agriculture & land-use",
    "Bioenergy production",
    18.724300000000003,
    22.75950367687501,
    29.086076581113204,
    37.12202326593783,
    47.3781538570125,
    60.46786423299331,
    77.1740202443226,
    98.49577914183067,
    125.70834690279058],
   ["Wastes",
    "Bioenergy production",
    -0.0,
    -0.0,
    -0.0,
    -0.0,
    -0.0,
    -0.0,
    -0.0,
    -0.0,
    -0.0],
   ["Marine algae",
    "Bioenergy production",
    0.0,
    0.0,
    0.0,
    0.0019444444444444446,
    0.01088888888888889,
    0.026833333333333334,
    0.04977777777777778,
    0.06377777777777778,
    0.07777777777777778],
   ["Oil",
    "Liquid",
    511.25480000000005,
    -36658.93742260773,
    -42615.11808609168,
    -38827.31539486836,
    -45443.026708196325,
    -40593.7084457852,
    -47054.67693752078,
    -45090.69170186878,
    -57325.2192078418],
   ["Natural gas",
    "Gaseous",
    3466.392527892833,
    5147.197404063709,
    14033.217036894006,
    22956.688960964428,
    30586.250296115308,
    36900.98523741227,
    41712.14140905673,
    44706.59375568946,
    45801.63758261743],
   ["Coal",
    "Solid",
    2.2564544444444445,
    10.722917339297778,
    14.655059979849515,
    16.180370393496403,
    17.864436340125025,
    19.723781223120493,
    25.87916365610342,
    24.043179252181265,
    26.54561266022986],
   ["Liquid",
    "Over supply/exports",
    0.0,
    0.0,
    0.0,
    0.0,
    0.0,
    0.0,
    0.0,
    0.0,
    0.0],
   ["Gaseous",
    "Over supply/exports",
    1226.2905921106335,
    1880.1611175511089,
    6098.173763839454,
    10374.742794977523,
    13862.603337949276,
    16579.25887571968,
    18460.2014270731,
    19304.158211282942,
    18820.94469479543],
   ["Solid",
    "Over supply/exports",
    0.0,
    0.0,
    0.0,
    0.0,
    0.0,
    0.0,
    0.0,
    0.0,
    0.0],
   ["Liquid",
    "Thermal generation",
    0.22682192297954626,
    160.0994100930663,
    166.10343825003582,
    158.2059149522221,
    143.75342925764062,
    149.17368263800302,
    101.87916374686569,
    54.86537741090508,
    8.524058400000001],
   ["Gaseous",
    "Thermal generation",
    0.15874564659333332,
    256.3842450798,
    361.738417833,
    454.05259491960004,
    559.7177380164001,
    858.0719654415002,
    908.1339318000003,
    958.2962649137999,
    1008.0549360000001],
   ["Solid",
    "Thermal generation",
    -0.0,
    -0.0,
    -0.0,
    -0.0,
    -0.0,
    -0.0,
    -0.0,
    -0.0,
    -0.0],
   ["Nuclear power generation",
    "Thermal generation",
    0.0,
    6.06852648,
    6.06852648,
    6.06852648,
    6.06852648,
    6.06852648,
    6.06852648,
    6.06852648,
    6.06852648],
   ["Electricity import",
    "Electricity grid",
    0.0,
    0.0,
    0.0,
    0.0,
    0.0,
    0.0,
    0.0,
    0.0,
    0.0],
   ["Thermal generation",
    "Electricity grid",
    0.107774612218,
    122.26617822319201,
    156.20909455332003,
    181.960161056784,
    209.678507200656,
    301.2199657176601,
    302.18691679200003,
    303.241159536552,
    304.3537668],
   ["Thermal generation",
    "Losses",
    0.2777929573548796,
    294.2174769496743,
    371.63276152971594,
    430.29834881503814,
    493.7926600733846,
    706.0256823618431,
    707.8261787548657,
    709.920482788153,
    712.2252276],
   ["Geothermal",
    "Electricity grid",
    9.909963,
    21.985127999999992,
    36.14221799999999,
    50.299307999999996,
    64.456398,
    78.61348799999999,
    92.770578,
    106.92766799999998,
    120.33526499999998],
   ["Biomass",
    "Electricity grid",
    12.741380999999999,
    27.494559,
    45.749754,
    64.004949,
    82.260144,
    100.51533899999998,
    118.77053399999998,
    137.02572899999998,
    155.05739099999994],
   ["Hydro",
    "Electricity grid",
    18.461195999999997,
    32.977692,
    51.491484,
    70.005276,
    88.51906799999999,
    107.03286,
    125.54665199999998,
    144.060444,
    162.88981199999998],
   ["OTEC",
    "Electricity grid",
    0.0017532000000000003,
    0.07889399999999999,
    0.06837480000000001,
    0.06837480000000001,
    0.06837480000000001,
    0.06837480000000001,
    0.06837480000000001,
    0.06837480000000001,
    0.06837480000000001],
   ["Wind",
    "Electricity grid",
    0.003278484,
    2.3801969159999996,
    2.9217078000000005,
    2.9217078000000005,
    2.9217078000000005,
    2.9217078000000005,
    2.9217078000000005,
    2.9217078000000005,
    1.1246778],
   ["PV",
    "Electricity grid",
    0.005960880000000001,
    0.5439303,
    1.08189972,
    1.6198691400000003,
    2.1578385600000005,
    2.6958079800000005,
    3.2337773999999997,
    3.77174682,
    4.3767761400000005],
   ["Electricity grid",
    "Over generation/exports",
    0.0,
    0.0,
    0.0,
    0.0,
    0.0,
    0.0,
    0.0,
    0.0,
    0.0],
   ["Electricity grid",
    "Losses",
    6.700227074408621,
    0.0,
    0.0,
    0.7728250455597021,
    7.282754070882897,
    16.651466681702544,
    38.457393804404106,
    60.76121220960359,
    93.61335804046257],
   ["Electricity grid",
    "Domestic lighting",
    9.07621517977812,
    9.889795448803302,
    10.945468784530991,
    12.042948412615804,
    13.181085051184155,
    14.358883528764364,
    15.575526046627669,
    16.830400782543872,
    18.12313606738843],
   ["Liquid",
    "Domestic lighting",
    1.4322358964739943,
    1.306823284246316,
    1.1369657824147819,
    0.9556357892993267,
    0.7662229077763613,
    0.5722328533091151,
    0.3773053283733147,
    0.18523557259828735,
    0.0],
   ["Gaseous",
    "Domestic lighting",
    0.0,
    0.0,
    0.0,
    0.0,
    0.0,
    0.0,
    0.0,
    0.0,
    0.0],
   ["Solid", "Domestic lighting", 0.0, 0.0, 0.0, 0.0, 0.0, 0.0, 0.0, 0.0, 0.0],
   ["Electricity grid",
    "Domestic cooling",
    6.637586127443168,
    7.359725980931568,
    8.329980833542814,
    9.37952273317129,
    10.51334931768984,
    11.737060005345677,
    13.056949318235308,
    14.480117605855378,
    16.014605672906118],
   ["Liquid", "Domestic cooling", 0.0, 0.0, 0.0, 0.0, 0.0, 0.0, 0.0, 0.0, 0.0],
   ["Gaseous",
    "Domestic cooling",
    0.0,
    0.0,
    0.0,
    0.0,
    0.0,
    0.0,
    0.0,
    0.0,
    0.0],
   ["Solid", "Domestic cooling", 0.0, 0.0, 0.0, 0.0, 0.0, 0.0, 0.0, 0.0, 0.0],
   ["Electricity grid",
    "Domestic cooking",
    31.856931713729637,
    38.40511200272946,
    46.826564357330085,
    55.417334921806386,
    64.07389434496844,
    72.68823338180343,
    81.14716617092166,
    89.33150067936214,
    97.11504791805577],
   ["Liquid",
    "Domestic cooking",
    68.97346540948561,
    64.70410788646036,
    58.7247575718838,
    52.123987951053465,
    45.003103729418186,
    37.46588622787725,
    29.618971641087075,
    21.572312626460192,
    13.43972215960998],
   ["Gaseous",
    "Domestic cooking",
    182.27581370514338,
    203.7561888542895,
    230.67661919174637,
    257.3622692577291,
    283.4717983389533,
    308.65603455777034,
    332.556752210627,
    354.80521845462937,
    375.0204695126131],
   ["Solid",
    "Domestic cooking",
    106.08999910524157,
    99.33542863958752,
    90.30928426582774,
    80.83218387285548,
    71.10925107419156,
    61.338794265726804,
    51.71123703223294,
    42.40786566272806,
    33.59930539902495],
   ["Electricity grid",
    "Domestic other appliances",
    22.657413076526403,
    24.680396382765814,
    27.303462376235963,
    30.028125545029464,
    32.85123856787828,
    35.77002262083145,
    38.782122933772776,
    41.88567719587224,
    45.079397276865336],
   ["Liquid",
    "Domestic other appliances",
    3.575362602876687,
    3.261231925815982,
    2.8361601567127277,
    2.382801160747526,
    1.9096585327983533,
    1.4255134855189806,
    0.9394675714153227,
    0.4609942151283524,
    0.0],
   ["Gaseous",
    "Domestic other appliances",
    0.0,
    0.0,
    0.0,
    0.0,
    0.0,
    0.0,
    0.0,
    0.0,
    0.0],
   ["Solid",
    "Domestic other appliances",
    0.0,
    0.0,
    0.0,
    0.0,
    0.0,
    0.0,
    0.0,
    0.0,
    0.0],
   ["Electricity grid",
    "Commercial lighting",
    0.008676324800000001,
    0.011577789464223292,
    0.016453062162085443,
    0.023166082510576242,
    0.03231703495508929,
    0.04466542377193723,
    0.06115896652913047,
    0.0829630872994888,
    0.11148919203599153],
   ["Liquid",
    "Commercial lighting",
    0.0,
    0.0,
    0.0,
    0.0,
    0.0,
    0.0,
    0.0,
    0.0,
    0.0],
   ["Gaseous",
    "Commercial lighting",
    0.0,
    0.0,
    0.0,
    0.0,
    0.0,
    0.0,
    0.0,
    0.0,
    0.0],
   ["Solid",
    "Commercial lighting",
    0.0,
    0.0,
    0.0,
    0.0,
    0.0,
    0.0,
    0.0,
    0.0,
    0.0],
   ["Electricity grid",
    "Commercial cooling",
    0.02169081199999998,
    0.0289444736605582,
    0.04113265540521359,
    0.0579152062764406,
    0.08079258738772327,
    0.11166355942984321,
    0.1528974163228264,
    0.20740771824872242,
    0.2787229800899796],
   ["Liquid",
    "Commercial cooling",
    0.0,
    0.0,
    0.0,
    0.0,
    0.0,
    0.0,
    0.0,
    0.0,
    0.0],
   ["Gaseous",
    "Commercial cooling",
    0.0,
    0.0,
    0.0,
    0.0,
    0.0,
    0.0,
    0.0,
    0.0,
    0.0],
   ["Solid",
    "Commercial cooling",
    0.0,
    0.0,
    0.0,
    0.0,
    0.0,
    0.0,
    0.0,
    0.0,
    0.0],
   ["Electricity grid",
    "Commercial cooking",
    0.1085292992,
    -0.0,
    -0.0,
    -0.0,
    -0.0,
    -0.0,
    -0.0,
    -0.0,
    -0.0],
   ["Liquid",
    "Commercial cooking",
    5.42646496,
    -0.0,
    -0.0,
    -0.0,
    -0.0,
    -0.0,
    -0.0,
    -0.0,
    -0.0],
   ["Gaseous",
    "Commercial cooking",
    1.7364687871999998,
    -0.0,
    -0.0,
    -0.0,
    -0.0,
    -0.0,
    -0.0,
    -0.0,
    -0.0],
   ["Solid",
    "Commercial cooking",
    3.5814668735999993,
    -0.0,
    -0.0,
    -0.0,
    -0.0,
    -0.0,
    -0.0,
    -0.0,
    -0.0],
   ["Electricity grid",
    "Commercial others",
    13.505397976,
    18.175783891192832,
    26.111604531708434,
    37.176904020515614,
    52.45717985633388,
    73.35361007991155,
    101.65192981606914,
    139.5982783574875,
    189.97982426985436],
   ["Liquid",
    "Commercial others",
    0.0,
    0.0,
    0.0,
    0.0,
    0.0,
    0.0,
    0.0,
    0.0,
    0.0],
   ["Gaseous",
    "Commercial others",
    0.0,
    0.0,
    0.0,
    0.0,
    0.0,
    0.0,
    0.0,
    0.0,
    0.0],
   ["Solid", "Commercial others", 0.0, 0.0, 0.0, 0.0, 0.0, 0.0, 0.0, 0.0, 0.0],
   ["Electricity grid",
    "Industrial process",
    34.004882980726244,
    51.3531810904873,
    84.8570705502022,
    138.58657798064928,
    224.18890293166575,
    359.80897442090867,
    573.6326396628743,
    909.3290007014905,
    1434.396263817748],
   ["Liquid",
    "Industrial process",
    117.51131484402816,
    161.0350022802489,
    238.75797697251937,
    353.98189725722887,
    524.7952985008059,
    778.0091448904334,
    1153.3616605119955,
    1709.7496333036588,
    2534.4625699123762],
   ["Gaseous",
    "Industrial process",
    243.1804768347128,
    332.21533529454257,
    490.6614480241213,
    724.6738472208556,
    1070.2904210033562,
    1580.7350858749237,
    2334.613312723405,
    3448.0157326687304,
    5092.393348869962],
   ["Solid",
    "Industrial process",
    190.93700740893314,
    254.21229290056786,
    363.2546688615466,
    518.5516153640422,
    739.4522169477123,
    1053.2557036487046,
    1498.4006794266593,
    2128.8914210235653,
    3020.417394200029],
   ["Electricity grid",
    "Freight",
    0.0,
    0.0,
    0.0,
    0.0,
    0.0,
    0.0,
    0.0,
    0.0,
    0.0],
   ["Liquid",
    "Freight",
    152.3397464629242,
    202.16931649330144,
    205.61206470501435,
    211.1397761167491,
    220.22458740075265,
    236.43655453940207,
    258.422246271331,
    299.39122227295263,
    379.76890456444266],
   ["Gaseous", "Freight", 0.0, 0.0, 0.0, 0.0, 0.0, 0.0, 0.0, 0.0, 0.0],
   ["Solid", "Freight", 0.0, 0.0, 0.0, 0.0, 0.0, 0.0, 0.0, 0.0, 0.0],
   ["Electricity grid",
    "Passenger Urban",
    0.15683526486486465,
    0.2744881837803744,
    0.46260617865380504,
    37.146914299869344,
    116.82547827071568,
    276.21542215212344,
    493.2973999193356,
    603.4000493516692,
    705.6010943676467],
   ["Liquid",
    "Passenger Urban",
    254.5761223871535,
    325.9189793805582,
    460.6266904830385,
    611.963716277094,
    810.670436481699,
    926.9013632223888,
    929.8596325198073,
    724.1639398126824,
    528.0510403960511],
   ["Gaseous",
    "Passenger Urban",
    1.4725850538409766,
    3.4289997932678635,
    8.200021504302276,
    17.601958015963024,
    35.38937100156101,
    66.73464812238925,
    121.98910051320345,
    217.92766269464605,
    382.4172112973925],
   ["Solid", "Passenger Urban", 0.0, 0.0, 0.0, 0.0, 0.0, 0.0, 0.0, 0.0, 0.0],
   ["Electricity grid",
    "Passenger Intercity",
    0.0,
    0.0,
    0.0,
    0.0,
    0.0,
    0.0,
    0.0,
    0.0,
    0.0],
   ["Liquid",
    "Passenger Intercity",
    -0.0,
    -0.0,
    -0.0,
    -0.0,
    -0.0,
    -0.0,
    -0.0,
    -0.0,
    -0.0],
   ["Gaseous",
    "Passenger Intercity",
    0.0,
    0.0,
    0.0,
    0.0,
    0.0,
    0.0,
    0.0,
    0.0,
    0.0],
   ["Solid",
    "Passenger Intercity",
    0.0,
    0.0,
    0.0,
    0.0,
    0.0,
    0.0,
    0.0,
    0.0,
    0.0],
   ["Electricity grid",
    "Air transport",
    0.0,
    0.0,
    0.0,
    0.0,
    0.0,
    0.0,
    0.0,
    0.0,
    0.0],
   ["Liquid",
    "Air transport",
    34.185687200000004,
    -0.0,
    -0.0,
    -0.0,
    -0.0,
    -0.0,
    -0.0,
    -0.0,
    -0.0],
   ["Gaseous", "Air transport", 0.0, 0.0, 0.0, 0.0, 0.0, 0.0, 0.0, 0.0, 0.0],
   ["Solid", "Air transport", 0.0, 0.0, 0.0, 0.0, 0.0, 0.0, 0.0, 0.0, 0.0],
   ["Electricity grid",
    "ACM energy demand",
    0.0,
    0.0,
    0.0,
    0.0,
    0.0,
    0.0,
    0.0,
    0.0,
    0.0],
   ["Liquid",
    "ACM energy demand",
    40.407039399999995,
    53.56988048100685,
    82.48992758868037,
    140.24326891525922,
    263.24733828426,
    464.7934777678119,
    1028.5998543814358,
    2513.2387699182823,
    6779.878351792601],
   ["Gaseous",
    "ACM energy demand",
    0.0,
    0.0,
    0.0,
    0.0,
    0.0,
    0.0,
    0.0,
    0.0,
    0.0],
   ["Solid", "ACM energy demand", 0.0, 0.0, 0.0, 0.0, 0.0, 0.0, 0.0, 0.0, 0.0],
   ["Gas", "Losses", 0.0, 0.0, 0.0, 0.0, 0.0, 0.0, 0.0, 0.0, 0.0]],
 "ghg"=>
  [["Mt CO2e",
    2010.0,
    2015.0,
    2020.0,
    2025.0,
    2030.0,
    2035.0,
    2040.0,
    2045.0,
    2050.0],
   ["Fuel Combustion",
    :name,
    :name,
    :name,
    :name,
    :name,
    :name,
    :name,
    :name,
    :name],
   [:name, :name, :name, :name, :name, :name, :name, :name, :name, :name],
   [:name, :name, :name, :name, :name, :name, :name, :name, :name, :name],
   [:name, :name, :name, :name, :name, :name, :name, :name, :name, :name],
   [:name, :name, :name, :name, :name, :name, :name, :name, :name, :name],
   [:name, :name, :name, :name, :name, :name, :name, :name, :name, :name],
   [:name, :name, :name, :name, :name, :name, :name, :name, :name, :name],
   [:name, :name, :name, :name, :name, :name, :name, :name, :name, :name],
   [:name, :name, :name, :name, :name, :name, :name, :name, :name, :name],
   [:name, :name, :name, :name, :name, :name, :name, :name, :name, :name],
   ["Total", :name, :name, :name, :name, :name, :name, :name, :name, :name],
   ["Targets", 603.6, 556.4, 508.8, 390.0, nil, nil, nil, nil, 159.917234]],
 "ghg_reduction_from_1990"=>:name,
 "final_energy_demand"=>
  [["Vector",
    "2011",
    2015.0,
    2020.0,
    2025.0,
    2030.0,
    2035.0,
    2040.0,
    2045.0,
    2050.0],
   ["Transport",
    442.73097636878356,
    531.7917838509079,
    674.901382871009,
    877.8523647096755,
    1183.1098731547283,
    1506.2879880363037,
    1803.5683792236773,
    1844.8828741319503,
    1995.838250625533],
   ["Domestic",
    432.5750228166986,
    452.69881040562984,
    477.0892633202253,
    500.52480964430794,
    522.8796018648585,
    544.0126609269473,
    563.7654982532931,
    581.9593227951779,
    598.3916840064637],
   ["Commerce",
    24.388695032799998,
    18.216306154317614,
    26.169190249275733,
    37.25798530930263,
    52.57028947867669,
    73.50993906311332,
    101.86598619892109,
    139.8886491630357,
    190.37003644198035],
   ["Industrial process",
    599.8231588308404,
    816.0632092548224,
    1199.5499645794341,
    1763.896126509452,
    2594.593144670241,
    3817.584412987383,
    5618.430724288801,
    8270.54926044934,
    12176.833562309328],
   ["ACM",
    40.407039399999995,
    53.56988048100684,
    82.48992758868036,
    140.2432689152592,
    263.24733828426,
    464.79347776781185,
    1028.5998543814358,
    2513.238769918282,
    6779.878351792601],
   ["Total",
    1539.9248924491226,
    1872.3399901466846,
    2460.199728608625,
    3319.774555087997,
    4616.400247452764,
    6406.188478781559,
    9116.230442346128,
    13350.518876457785,
    21741.311885175906]],
 "primary_energy_supply"=>
  [["Vector",
    2010.0,
    2015.0,
    2020.0,
    2025.0,
    2030.0,
    2035.0,
    2040.0,
    2045.0,
    2050.0],
   ["Indigenous Gas",
    1013.8113436715662,
    1386.875168961491,
    1836.8695092150965,
    2207.2033710093838,
    2861.043620216755,
    3742.4674859729093,
    4791.73855491052,
    6098.277333123573,
    8159.748193026571],
   ["Imported Gas", 0.0, 0.0, 0.0, 0.0, 0.0, 0.0, 0.0, 0.0, 0.0],
   ["Indigenous Oil",
    511.25480000000005,
    1989.6604000000002,
    4278.76102675,
    6317.511729578849,
    8393.142932491666,
    11096.240848670144,
    13461.771211312227,
    15338.03952651133,
    16820.219467807427],
   ["Imported Oil",
    39851.806315524154,
    38648.59782260773,
    46893.87911284168,
    45144.82712444721,
    53836.16964068799,
    51689.94929445535,
    60516.448148833006,
    60428.731228380115,
    74145.43867564923],
   ["Indigenous Coal",
    2.2564544444444445,
    10.722917339297778,
    14.655059979849515,
    16.180370393496403,
    17.864436340125025,
    19.723781223120493,
    25.87916365610342,
    24.043179252181265,
    26.54561266022986],
   ["Imported Coal",
    763.0971954496002,
    347.9990235075503,
    445.5145331988382,
    641.548322198774,
    1263.0936597091275,
    2132.6884868840875,
    3844.947956437406,
    5744.470368321231,
    8412.809543284948],
   ["Indigenous Bioenergy",
    63.32539242399999,
    119.56158699187502,
    190.34621028711322,
    262.8421518073823,
    337.5652772339014,
    415.1289824453266,
    496.3161332921003,
    582.1099425806084,
    673.082608127568],
   ["Imported Bioenergy", 0.0, 0.0, 0.0, 0.0, 0.0, 0.0, 0.0, 0.0, 0.0],
   ["Nuclear fussion",
    0.0,
    17.699868900000002,
    17.699868900000002,
    17.699868900000002,
    17.699868900000002,
    17.699868900000002,
    17.699868900000002,
    17.699868900000002,
    17.699868900000002],
   ["Geothermal",
    86.71217625,
    192.36986999999993,
    316.2444074999999,
    440.118945,
    563.9934825,
    687.86802,
    811.7425575,
    935.6170949999998,
    1052.9335687499997],
   ["Agriculture",
    63.31913349999999,
    118.99046017687502,
    189.21021558111323,
    261.1412892103823,
    335.2995467459014,
    412.2983840663266,
    492.9206670221003,
    578.1496084196084,
    668.4869931805681],
   ["Hydro",
    19.3842558,
    34.6265766,
    54.0660582,
    73.5055398,
    92.94502139999999,
    112.384503,
    131.8239846,
    151.26346619999998,
    171.0343026],
   ["Solar",
    0.0018408600000000004,
    0.08283869999999999,
    0.07179354000000002,
    0.07179354000000002,
    0.07179354000000002,
    0.07179354000000002,
    0.07179354000000002,
    0.07179354000000002,
    0.07179354000000002],
   ["Wind",
    0.0034424081999999997,
    2.4992067617999996,
    3.0677931900000006,
    3.0677931900000006,
    3.0677931900000006,
    3.0677931900000006,
    3.0677931900000006,
    3.0677931900000006,
    1.1809116899999998],
   ["Wave", 0.0, 0.0, 0.0, 0.0, 0.0, 0.0, 0.0, 0.0, 0.0],
   ["Total used in Indonesia",
    42329.40839092571,
    42765.46139923851,
    54056.65755421569,
    55164.33607366829,
    67447.63140226215,
    70011.73933527859,
    84245.45625734882,
    89517.85908757374,
    109746.88992167068]],
 "test1"=>
  [["Vector",
    2010.0,
    2015.0,
    2020.0,
    2025.0,
    2030.0,
    2035.0,
    2040.0,
    2045.0,
    2050.0],
   ["Indigenous Gas",
    1013.8113436715662,
    1386.875168961491,
    1836.8695092150965,
    2207.2033710093838,
    2861.043620216755,
    3742.4674859729093,
    4791.73855491052,
    6098.277333123573,
    8159.748193026571],
   ["Imported Gas", 0.0, 0.0, 0.0, 0.0, 0.0, 0.0, 0.0, 0.0, 0.0],
   ["Indigenous Oil",
    511.25480000000005,
    1989.6604000000002,
    4278.76102675,
    6317.511729578849,
    8393.142932491666,
    11096.240848670144,
    13461.771211312227,
    15338.03952651133,
    16820.219467807427],
   ["Imported Oil",
    39851.806315524154,
    38648.59782260773,
    46893.87911284168,
    45144.82712444721,
    53836.16964068799,
    51689.94929445535,
    60516.448148833006,
    60428.731228380115,
    74145.43867564923],
   ["Indigenous Coal",
    2.2564544444444445,
    10.722917339297778,
    14.655059979849515,
    16.180370393496403,
    17.864436340125025,
    19.723781223120493,
    25.87916365610342,
    24.043179252181265,
    26.54561266022986],
   ["Imported Coal",
    763.0971954496002,
    347.9990235075503,
    445.5145331988382,
    641.548322198774,
    1263.0936597091275,
    2132.6884868840875,
    3844.947956437406,
    5744.470368321231,
    8412.809543284948],
   ["Indigenous Bioenergy",
    63.32539242399999,
    119.56158699187502,
    190.34621028711322,
    262.8421518073823,
    337.5652772339014,
    415.1289824453266,
    496.3161332921003,
    582.1099425806084,
    673.082608127568],
   ["Imported Bioenergy", 0.0, 0.0, 0.0, 0.0, 0.0, 0.0, 0.0, 0.0, 0.0],
   ["Nuclear fussion",
    0.0,
    17.699868900000002,
    17.699868900000002,
    17.699868900000002,
    17.699868900000002,
    17.699868900000002,
    17.699868900000002,
    17.699868900000002,
    17.699868900000002],
   ["Geothermal",
    86.71217625,
    192.36986999999993,
    316.2444074999999,
    440.118945,
    563.9934825,
    687.86802,
    811.7425575,
    935.6170949999998,
    1052.9335687499997],
   ["Agriculture",
    63.31913349999999,
    118.99046017687502,
    189.21021558111323,
    261.1412892103823,
    335.2995467459014,
    412.2983840663266,
    492.9206670221003,
    578.1496084196084,
    668.4869931805681],
   ["Hydro",
    19.3842558,
    34.6265766,
    54.0660582,
    73.5055398,
    92.94502139999999,
    112.384503,
    131.8239846,
    151.26346619999998,
    171.0343026],
   ["Solar",
    0.0018408600000000004,
    0.08283869999999999,
    0.07179354000000002,
    0.07179354000000002,
    0.07179354000000002,
    0.07179354000000002,
    0.07179354000000002,
    0.07179354000000002,
    0.07179354000000002],
   ["Wind",
    0.0034424081999999997,
    2.4992067617999996,
    3.0677931900000006,
    3.0677931900000006,
    3.0677931900000006,
    3.0677931900000006,
    3.0677931900000006,
    3.0677931900000006,
    1.1809116899999998],
   ["Wave", 0.0, 0.0, 0.0, 0.0, 0.0, 0.0, 0.0, 0.0, 0.0],
   ["Total used in Indonesia",
    42329.40839092571,
    42765.46139923851,
    54056.65755421569,
    55164.33607366829,
    67447.63140226215,
    70011.73933527859,
    84245.45625734882,
    89517.85908757374,
    109746.88992167068]],
 "electricity"=>
  {"demand"=>
    [["Sector",
      2011.0,
      2015.0,
      2020.0,
      2025.0,
      2030.0,
      2035.0,
      2040.0,
      2045.0,
      2050.0],
     ["Transport",
      0.15683526486486465,
      0.2744881837803744,
      0.46260617865380504,
      37.146914299869344,
      116.82547827071568,
      276.21542215212344,
      493.2973999193356,
      603.4000493516692,
      705.6010943676467],
     ["Industry",
      34.004882980726244,
      51.3531810904873,
      84.8570705502022,
      138.58657798064928,
      224.18890293166575,
      359.80897442090867,
      573.6326396628743,
      909.3290007014905,
      1434.396263817748],
     ["Domestic",
      70.22814609747732,
      80.33502981523014,
      93.40547635163986,
      106.86793161262295,
      120.61956728172072,
      134.5541995367449,
      148.5617644695574,
      162.52769626363363,
      176.33218693521565],
     ["Commerce",
      13.644294412,
      18.216306154317614,
      26.169190249275733,
      37.25798530930263,
      52.57028947867669,
      73.50993906311332,
      101.86598619892109,
      139.8886491630357,
      190.37003644198035],
     ["Total",
      118.03415875506843,
      150.17900524381542,
      204.8943433297716,
      319.8594092024442,
      514.2042379627788,
      844.0885351728904,
      1317.3577902506884,
      1815.1453954798292,
      2506.6995815625905]],
   "supply"=>
    [["Sector",
      2011.0,
      2015.0,
      2020.0,
      2025.0,
      2030.0,
      2035.0,
      2040.0,
      2045.0,
      2050.0],
     ["Conventional",
      0.107774612218,
      122.26617822319201,
      156.20909455332003,
      181.960161056784,
      209.678507200656,
      301.2199657176601,
      302.18691679200003,
      303.241159536552,
      304.3537668],
     ["Geothermal",
      9.909963,
      21.985127999999992,
      36.14221799999999,
      50.299307999999996,
      64.456398,
      78.61348799999999,
      92.770578,
      106.92766799999998,
      120.33526499999998],
     ["Biomass",
      12.741380999999999,
      27.494559,
      45.749754,
      64.004949,
      82.260144,
      100.51533899999998,
      118.77053399999998,
      137.02572899999998,
      155.05739099999994],
     ["Hydro",
      18.461195999999997,
      32.977692,
      51.491484,
      70.005276,
      88.51906799999999,
      107.03286,
      125.54665199999998,
      144.060444,
      162.88981199999998],
     ["OTEC",
      0.0017532000000000003,
      0.07889399999999999,
      0.06837480000000001,
      0.06837480000000001,
      0.06837480000000001,
      0.06837480000000001,
      0.06837480000000001,
      0.06837480000000001,
      0.06837480000000001],
     ["Wind",
      0.003278484,
      2.3801969159999996,
      2.9217078000000005,
      2.9217078000000005,
      2.9217078000000005,
      2.9217078000000005,
      2.9217078000000005,
      2.9217078000000005,
      1.1246778],
     ["PV",
      0.005960880000000001,
      0.5439303,
      1.08189972,
      1.6198691400000003,
      2.1578385600000005,
      2.6958079800000005,
      3.2337773999999997,
      3.77174682,
      4.3767761400000005],
     ["Nuclear power generation",
      0.0,
      6.06852648,
      6.06852648,
      6.06852648,
      6.06852648,
      6.06852648,
      6.06852648,
      6.06852648,
      6.06852648],
     ["Steam coal PP as balancing",
      134.0045414881724,
      0.0,
      0.0,
      15.456500911194041,
      145.65508141765793,
      333.0293336340509,
      769.1478760880821,
      1215.2242441920716,
      1872.2671608092514],
     ["Total",
      175.2358486643904,
      213.795104919192,
      299.73305935332,
      392.404673187978,
      601.7856462583139,
      932.1654034117109,
      1420.714943360082,
      1919.3096006286237,
      2626.541750829251]],
   "ghg"=>
    [["Source",
      2011.0,
      2015.0,
      2020.0,
      2025.0,
      2030.0,
      2035.0,
      2040.0,
      2045.0,
      2050.0],
     ["Fuel combustion", nil, nil, nil, nil, nil, nil, nil, nil, nil],
     ["Bioenergy credit", nil, nil, nil, nil, nil, nil, nil, nil, nil],
     ["Total", 0.0, 0.0, 0.0, 0.0, 0.0, 0.0, 0.0, 0.0, 0.0]],
   "capacity"=>
    [["Sector",
      2011.0,
      2015.0,
      2020.0,
      2025.0,
      2030.0,
      2035.0,
      2040.0,
      2045.0,
      2050.0],
     ["Coal power plant",
      12.05,
      5.13,
      8.65,
      11.07,
      12.65,
      12.7,
      11.22,
      8.83,
      6.35],
     ["Gas combined-cycle power plant",
      8.81,
      10.0199,
      14.229800000000003,
      15.999699999999999,
      17.9996,
      24.9995,
      24.999400000000005,
      24.9993,
      24.999200000000002],
     ["Gas turbine power plant",
      2.9700000000000006,
      7.879900000000001,
      9.1498,
      11.489700000000001,
      13.829600000000001,
      20.9995,
      20.9994,
      20.9993,
      20.999200000000002],
     ["Diesel power plant",
      2.598,
      2.286,
      1.9450000000000003,
      1.6350000000000002,
      1.3530000000000002,
      1.0950000000000002,
      0.8590000000000001,
      0.6420000000000001,
      0.44200000000000006],
     ["Geothermal",
      1.19,
      2.6399999999999997,
      4.34,
      6.04,
      7.74,
      9.44,
      11.139999999999999,
      12.839999999999998,
      14.449999999999998],
     ["Biomass",
      1.71,
      3.69,
      6.140000000000001,
      8.59,
      11.04,
      13.489999999999998,
      15.939999999999998,
      18.389999999999997,
      20.809999999999995],
     ["Hydro",
      3.51,
      6.27,
      9.79,
      13.309999999999999,
      16.83,
      20.349999999999998,
      23.869999999999997,
      27.389999999999997,
      30.97],
     ["OTEC", 0.001, 0.045, 0.039, 0.039, 0.039, 0.039, 0.039, 0.039, 0.039],
     ["Wind",
      0.00187,
      1.35763,
      1.6665,
      1.6665,
      1.6665,
      1.6665,
      1.6665,
      1.6665,
      0.6415],
     ["PV", 0.0, 0.0, 0.0, 0.0, 0.0, 0.0, 0.0, 0.0, 0.0],
     ["Nuclear power generation",
      0.0,
      0.7692,
      0.7692,
      0.7692,
      0.7692,
      0.7692,
      0.7692,
      0.7692,
      0.7692],
     ["Steam coal PP as balancing",
      61.80138952336405,
      0.0,
      0.0,
      6.698908449674548,
      61.68709807160531,
      137.4407965195814,
      309.107175322497,
      479.7741567099557,
      718.9259653867697],
     ["Total generation",
      94.64225952336405,
      40.087630000000004,
      56.7193,
      77.30800844967455,
      145.6039980716053,
      242.9894965195814,
      420.609675322497,
      596.3394567099557,
      839.3960653867697]]}}
