{"_id"=>"r013ce1111111111042233B002322220233302202102330220121",
 "choices"=>
  [2.7,
   0.0,
   1.0,
   3.0,
   1.2,
   1.4,
   1.0,
   1.0,
   1.0,
   1.0,
   1.0,
   1.0,
   1.0,
   1.0,
   1.0,
   1.0,
   0.0,
   4.0,
   2.0,
   2.0,
   3.0,
   3.0,
   3.7,
   0.0,
   0.0,
   2.0,
   3.0,
   2.0,
   2.0,
   2.0,
   2.0,
   0.0,
   2.0,
   3.0,
   3.0,
   3.0,
   0.0,
   2.0,
   2.0,
   0.0,
   2.0,
   1.0,
   0.0,
   2.0,
   3.0,
   3.0,
   0.0,
   2.0,
   2.0,
   0.0,
   1.0,
   2.0,
   1.0],
 "sankey"=>
  [["From",
    "To",
    "2011",
    "2015",
    "2020",
    "2025",
    "2030",
    "2035",
    "2040",
    "2045",
    "2050"],
   ["Oil production",
    "Oil",
    511.25480000000005,
    1867.5454000000002,
    3637.3155333211257,
    4936.099168336044,
    5889.281702300769,
    6588.826198058922,
    7102.224717343599,
    7479.0099557408375,
    7755.534157781512],
   ["Oil imports",
    "Oil",
    -0.0,
    -38711.62597976159,
    -47418.22122267657,
    -46337.44242387556,
    -56036.34838072595,
    -55700.9771149616,
    -66085.16948275303,
    -66901.05427146622,
    -80479.36088492279],
   ["Gas production",
    "Natural gas",
    2240.1019357821997,
    3139.761312303,
    6038.229706129135,
    7525.826155608729,
    8349.498005247871,
    8956.124655493879,
    9401.330394204493,
    9728.068676639747,
    9967.863216391035],
   ["Gas imports",
    "Natural gas",
    1226.2905921106335,
    1870.111790549029,
    4480.771028287718,
    5795.471282835165,
    6252.58914953822,
    6579.035179815518,
    6509.151980909936,
    6345.768852550109,
    5770.078296772486],
   ["Coal production",
    "Coal",
    2.2564544444444445,
    10.406537777777778,
    13.008172222222223,
    13.008172222222223,
    13.008172222222223,
    13.008172222222223,
    15.609806666666667,
    13.008172222222223,
    13.008172222222223],
   ["Coal import",
    "Coal",
    -0.0,
    -0.0,
    -0.0,
    -0.0,
    -0.0,
    -0.0,
    -0.0,
    -0.0,
    -0.0],
   ["Agriculture & land-use",
    "Bioenergy production",
    18.724300000000003,
    22.75950367687501,
    29.062951581113204,
    37.09250925480501,
    47.34048566876827,
    60.41978901884442,
    77.11266273489115,
    98.41746968382238,
    125.60840198536522],
   ["Wastes",
    "Bioenergy production",
    -0.0,
    -0.0,
    -0.0,
    -0.0,
    -0.0,
    -0.0,
    -0.0,
    -0.0,
    -0.0],
   ["Marine algae",
    "Bioenergy production",
    0.0,
    0.0,
    0.0,
    0.0019444444444444446,
    0.04200000000000001,
    0.12016666666666669,
    0.23644444444444446,
    0.3126666666666667,
    0.38888888888888895],
   ["Oil",
    "Liquid",
    511.25480000000005,
    -36844.08057976159,
    -43780.905689355444,
    -41401.34325553951,
    -50147.06667842518,
    -49112.150916902676,
    -58982.94476540943,
    -59422.044315725376,
    -72723.82672714128],
   ["Natural gas",
    "Gaseous",
    3466.392527892833,
    5009.873102852029,
    10519.000734416852,
    13321.297438443893,
    14602.087154786092,
    15535.159835309398,
    15910.482375114429,
    16073.837529189856,
    15737.941513163521],
   ["Coal",
    "Solid",
    2.2564544444444445,
    10.406537777777778,
    13.008172222222223,
    13.008172222222223,
    13.008172222222223,
    13.008172222222223,
    15.609806666666667,
    13.008172222222223,
    13.008172222222223],
   ["Liquid",
    "Over supply/exports",
    0.0,
    0.0,
    0.0,
    0.0,
    0.0,
    0.0,
    0.0,
    0.0,
    0.0],
   ["Gaseous",
    "Over supply/exports",
    1226.2905921106335,
    1870.111790549029,
    4480.771028287718,
    5795.471282835165,
    6252.58914953822,
    6579.035179815518,
    6509.151980909936,
    6345.768852550109,
    5770.078296772486],
   ["Solid",
    "Over supply/exports",
    0.0,
    0.0,
    0.0,
    0.0,
    0.0,
    0.0,
    0.0,
    0.0,
    0.0],
   ["Liquid",
    "Thermal generation",
    0.22682192297954626,
    122.19904702237969,
    110.35251559928956,
    98.50635911502806,
    86.6385392489839,
    74.79313301657015,
    62.948101722985086,
    51.08140817018868,
    39.303237600000024],
   ["Gaseous",
    "Thermal generation",
    0.15874564659333332,
    172.12483945980003,
    184.415386833,
    196.7054950296,
    209.0209781664,
    221.3102075715,
    233.5989978,
    245.91316165380005,
    258.123636],
   ["Solid",
    "Thermal generation",
    -0.0,
    -0.0,
    -0.0,
    -0.0,
    -0.0,
    -0.0,
    -0.0,
    -0.0,
    -0.0],
   ["Nuclear power generation",
    "Thermal generation",
    0.0,
    0.0,
    0.0,
    0.0,
    0.0,
    0.0,
    0.0,
    0.0,
    0.0],
   ["Electricity import",
    "Electricity grid",
    0.0,
    0.0,
    0.0,
    0.0,
    0.0,
    0.0,
    0.0,
    0.0,
    0.0],
   ["Thermal generation",
    "Electricity grid",
    0.107774612218,
    85.085339998392,
    85.26901231332,
    85.452667061184,
    85.63733680665601,
    85.82095640286,
    86.00455843200002,
    86.18917540615203,
    86.36964480000002],
   ["Thermal generation",
    "Losses",
    0.2777929573548796,
    209.23854648378767,
    209.49889011896957,
    209.7591870834441,
    210.0221806087279,
    210.28238418521016,
    210.54254109098508,
    210.8053944178367,
    211.0572288],
   ["Geothermal",
    "Electricity grid",
    9.909963,
    15.1730694,
    21.318911999999997,
    27.4647546,
    33.610597199999994,
    39.75643979999999,
    45.90228239999999,
    52.04812499999998,
    57.84420419999997],
   ["Biomass",
    "Electricity grid",
    12.741380999999999,
    16.913997,
    21.384657000000004,
    25.855317,
    30.325977000000005,
    34.796637,
    39.267297,
    43.737956999999994,
    47.61252899999999],
   ["Hydro",
    "Electricity grid",
    18.461195999999997,
    20.775419999999997,
    23.457815999999998,
    26.140212,
    28.822608,
    31.505003999999996,
    34.1874,
    36.869795999999994,
    39.39440399999999],
   ["OTEC",
    "Electricity grid",
    0.0017532000000000003,
    0.0,
    0.0,
    0.0,
    0.0,
    0.0,
    0.0,
    0.0,
    0.0],
   ["Wind",
    "Electricity grid",
    0.003278484,
    0.0,
    0.0,
    0.0,
    0.0,
    0.0,
    0.0,
    0.0,
    0.0],
   ["PV",
    "Electricity grid",
    0.005960880000000001,
    0.041726160000000005,
    0.07749144000000001,
    0.11325672000000003,
    0.14902200000000002,
    0.18478728000000003,
    0.22055256000000004,
    0.25631784,
    0.29208312000000003],
   ["Electricity grid",
    "Over generation/exports",
    0.0,
    0.0,
    0.0,
    0.0,
    0.0,
    0.0,
    0.0,
    0.0,
    0.0],
   ["Electricity grid",
    "Losses",
    6.700227074408621,
    3.2086097203384334,
    5.360706930307954,
    9.240772100783344,
    16.835531997561684,
    28.730538928603735,
    45.685907257662635,
    58.50428734409269,
    74.32726085871442],
   ["Electricity grid",
    "Domestic lighting",
    9.07621517977812,
    9.73969420882905,
    10.565197720795114,
    11.38059807760649,
    12.179522899724452,
    12.955449585818549,
    13.701681386382067,
    14.41131971466608,
    15.077230845978608],
   ["Liquid",
    "Domestic lighting",
    1.4322358964739943,
    1.2869891232256925,
    1.0974649445775573,
    0.9030767594419683,
    0.708001611044704,
    0.5163029470602094,
    0.33191285991106156,
    0.15861114026541157,
    0.0],
   ["Gaseous",
    "Domestic lighting",
    0.0,
    0.0,
    0.0,
    0.0,
    0.0,
    0.0,
    0.0,
    0.0,
    0.0],
   ["Solid", "Domestic lighting", 0.0, 0.0, 0.0, 0.0, 0.0, 0.0, 0.0, 0.0, 0.0],
   ["Electricity grid",
    "Domestic cooling",
    6.637586127443168,
    7.13092620950364,
    7.739667231165757,
    8.331810087444698,
    8.89809079718222,
    9.42813016822847,
    9.910260701375247,
    10.331319864851835,
    10.676403781937369],
   ["Liquid", "Domestic cooling", 0.0, 0.0, 0.0, 0.0, 0.0, 0.0, 0.0, 0.0, 0.0],
   ["Gaseous",
    "Domestic cooling",
    0.0,
    0.0,
    0.0,
    0.0,
    0.0,
    0.0,
    0.0,
    0.0,
    0.0],
   ["Solid", "Domestic cooling", 0.0, 0.0, 0.0, 0.0, 0.0, 0.0, 0.0, 0.0, 0.0],
   ["Electricity grid",
    "Domestic cooking",
    31.856931713729637,
    38.40511200272946,
    46.826564357330085,
    55.417334921806386,
    64.07389434496844,
    72.68823338180343,
    81.14716617092166,
    89.33150067936214,
    97.11504791805577],
   ["Liquid",
    "Domestic cooking",
    68.97346540948561,
    64.70410788646036,
    58.7247575718838,
    52.123987951053465,
    45.003103729418186,
    37.46588622787725,
    29.618971641087075,
    21.572312626460192,
    13.43972215960998],
   ["Gaseous",
    "Domestic cooking",
    182.27581370514338,
    203.7561888542895,
    230.67661919174637,
    257.3622692577291,
    283.4717983389533,
    308.65603455777034,
    332.556752210627,
    354.80521845462937,
    375.0204695126131],
   ["Solid",
    "Domestic cooking",
    106.08999910524157,
    99.33542863958752,
    90.30928426582774,
    80.83218387285548,
    71.10925107419156,
    61.338794265726804,
    51.71123703223294,
    42.40786566272806,
    33.59930539902495],
   ["Electricity grid",
    "Domestic other appliances",
    22.657413076526403,
    24.680396382765814,
    27.303462376235963,
    30.028125545029464,
    32.85123856787828,
    35.77002262083145,
    38.782122933772776,
    41.88567719587224,
    45.079397276865336],
   ["Liquid",
    "Domestic other appliances",
    3.575362602876687,
    3.261231925815982,
    2.8361601567127277,
    2.382801160747526,
    1.9096585327983533,
    1.4255134855189806,
    0.9394675714153227,
    0.4609942151283524,
    0.0],
   ["Gaseous",
    "Domestic other appliances",
    0.0,
    0.0,
    0.0,
    0.0,
    0.0,
    0.0,
    0.0,
    0.0,
    0.0],
   ["Solid",
    "Domestic other appliances",
    0.0,
    0.0,
    0.0,
    0.0,
    0.0,
    0.0,
    0.0,
    0.0,
    0.0],
   ["Electricity grid",
    "Commercial lighting",
    0.008676324800000001,
    0.01140368133163388,
    0.015886628143520043,
    0.021903382676654766,
    0.029883141739601046,
    0.04033790883375492,
    0.05386436915598508,
    0.07113954011413261,
    0.09290766002999293],
   ["Liquid",
    "Commercial lighting",
    0.0,
    0.0,
    0.0,
    0.0,
    0.0,
    0.0,
    0.0,
    0.0,
    0.0],
   ["Gaseous",
    "Commercial lighting",
    0.0,
    0.0,
    0.0,
    0.0,
    0.0,
    0.0,
    0.0,
    0.0,
    0.0],
   ["Solid",
    "Commercial lighting",
    0.0,
    0.0,
    0.0,
    0.0,
    0.0,
    0.0,
    0.0,
    0.0,
    0.0],
   ["Electricity grid",
    "Commercial cooling",
    0.02169081199999998,
    0.028654293439575842,
    0.04018859870760455,
    0.055810706553238054,
    0.0767360986952427,
    0.10445103453287238,
    0.14073975403425024,
    0.18770180627312796,
    0.2477537600799806],
   ["Liquid",
    "Commercial cooling",
    0.0,
    0.0,
    0.0,
    0.0,
    0.0,
    0.0,
    0.0,
    0.0,
    0.0],
   ["Gaseous",
    "Commercial cooling",
    0.0,
    0.0,
    0.0,
    0.0,
    0.0,
    0.0,
    0.0,
    0.0,
    0.0],
   ["Solid",
    "Commercial cooling",
    0.0,
    0.0,
    0.0,
    0.0,
    0.0,
    0.0,
    0.0,
    0.0,
    0.0],
   ["Electricity grid",
    "Commercial cooking",
    0.1085292992,
    -0.0,
    -0.0,
    -0.0,
    -0.0,
    -0.0,
    -0.0,
    -0.0,
    -0.0],
   ["Liquid",
    "Commercial cooking",
    5.42646496,
    -0.0,
    -0.0,
    -0.0,
    -0.0,
    -0.0,
    -0.0,
    -0.0,
    -0.0],
   ["Gaseous",
    "Commercial cooking",
    1.7364687871999998,
    -0.0,
    -0.0,
    -0.0,
    -0.0,
    -0.0,
    -0.0,
    -0.0,
    -0.0],
   ["Solid",
    "Commercial cooking",
    3.5814668735999993,
    -0.0,
    -0.0,
    -0.0,
    -0.0,
    -0.0,
    -0.0,
    -0.0,
    -0.0],
   ["Electricity grid",
    "Commercial others",
    13.505397976,
    18.082094283506272,
    25.806799809548416,
    36.4974305788874,
    51.14747365755552,
    71.02492404562868,
    97.72662227323828,
    133.23589033583264,
    179.98088615038847],
   ["Liquid",
    "Commercial others",
    0.0,
    0.0,
    0.0,
    0.0,
    0.0,
    0.0,
    0.0,
    0.0,
    0.0],
   ["Gaseous",
    "Commercial others",
    0.0,
    0.0,
    0.0,
    0.0,
    0.0,
    0.0,
    0.0,
    0.0,
    0.0],
   ["Solid", "Commercial others", 0.0, 0.0, 0.0, 0.0, 0.0, 0.0, 0.0, 0.0, 0.0],
   ["Electricity grid",
    "Industrial process",
    34.004882980726244,
    46.4543917636261,
    67.72074783413159,
    97.57288925587525,
    139.2503801132012,
    197.16442318734693,
    277.30946912184066,
    387.81639975008846,
    539.6952021407312],
   ["Liquid",
    "Industrial process",
    117.51131484402816,
    145.6732168237354,
    190.54238671104883,
    249.22353205435854,
    325.96593248923097,
    426.32545375969215,
    557.5660931184736,
    729.1848679084716,
    953.597916761426],
   ["Gaseous",
    "Industrial process",
    243.1804768347128,
    300.52395991717594,
    391.57562213879896,
    510.2118983801056,
    664.7891399052137,
    866.1949633694843,
    1128.6149594566207,
    1470.5316191320046,
    1916.025806204755],
   ["Solid",
    "Industrial process",
    190.93700740893314,
    229.96194577944473,
    289.89779720229984,
    365.0900402955016,
    459.2957141902063,
    577.1522336620534,
    724.3672486764613,
    907.9431159935461,
    1136.4396417023042],
   ["Electricity grid",
    "Freight",
    0.0,
    0.0,
    0.0,
    0.0,
    0.0,
    0.0,
    0.0,
    0.0,
    0.0],
   ["Liquid",
    "Freight",
    152.3397464629242,
    201.01113032449547,
    204.5401013770445,
    210.2296553420094,
    219.61241094056908,
    236.39499834372884,
    259.2567657208674,
    301.85631135666995,
    385.39256236740164],
   ["Gaseous",
    "Freight",
    0.0,
    0.032638711216074284,
    0.10992404683196529,
    0.26230850883947554,
    0.5605151465380349,
    1.1712267548257551,
    2.178642721119941,
    4.234545237395472,
    8.671999172922474],
   ["Solid", "Freight", 0.0, 0.0, 0.0, 0.0, 0.0, 0.0, 0.0, 0.0, 0.0],
   ["Electricity grid",
    "Passenger Urban",
    0.15683526486486465,
    0.2744881837803744,
    0.46260617865380504,
    37.99072271339376,
    119.16785916769685,
    279.42215358642613,
    497.17165437260286,
    607.7526005067153,
    710.2518957377364],
   ["Liquid",
    "Passenger Urban",
    254.5761223871535,
    325.9189793805582,
    460.6266904830385,
    611.0394178980996,
    808.2212403064806,
    923.6941820865336,
    926.1462846604086,
    720.1590311934038,
    523.9362929951662],
   ["Gaseous",
    "Passenger Urban",
    1.4725850538409766,
    3.4289997932678635,
    8.200021504302276,
    17.601958015963024,
    35.38937100156101,
    66.73464812238925,
    121.98910051320345,
    217.92766269464605,
    382.4172112973925],
   ["Solid", "Passenger Urban", 0.0, 0.0, 0.0, 0.0, 0.0, 0.0, 0.0, 0.0, 0.0],
   ["Electricity grid",
    "Passenger Intercity",
    0.0,
    0.0,
    0.0,
    0.0,
    0.0,
    0.0,
    0.0,
    0.0,
    0.0],
   ["Liquid",
    "Passenger Intercity",
    -0.0,
    -0.0,
    -0.0,
    -0.0,
    -0.0,
    -0.0,
    -0.0,
    -0.0,
    -0.0],
   ["Gaseous",
    "Passenger Intercity",
    0.0,
    0.02816877718069131,
    0.07398351248032144,
    0.13436830494237811,
    0.2130466136194814,
    0.3145513451843863,
    0.44422485392998257,
    0.6088664998654024,
    0.8162469801439403],
   ["Solid",
    "Passenger Intercity",
    0.0,
    0.0,
    0.0,
    0.0,
    0.0,
    0.0,
    0.0,
    0.0,
    0.0],
   ["Electricity grid",
    "Air transport",
    0.0,
    0.0,
    0.0,
    0.0,
    0.0,
    0.0,
    0.0,
    0.0,
    0.0],
   ["Liquid",
    "Air transport",
    34.185687200000004,
    -0.0,
    -0.0,
    -0.0,
    -0.0,
    -0.0,
    -0.0,
    -0.0,
    -0.0],
   ["Gaseous", "Air transport", 0.0, 0.0, 0.0, 0.0, 0.0, 0.0, 0.0, 0.0, 0.0],
   ["Solid", "Air transport", 0.0, 0.0, 0.0, 0.0, 0.0, 0.0, 0.0, 0.0, 0.0],
   ["Electricity grid",
    "ACM energy demand",
    0.0,
    0.0,
    0.0,
    0.0,
    0.0,
    0.0,
    0.0,
    0.0,
    0.0],
   ["Liquid",
    "ACM energy demand",
    40.407039399999995,
    52.1582341841938,
    77.67940279698928,
    127.72906554860687,
    231.885958101978,
    414.25637223619214,
    895.0367654353283,
    2135.0763581536944,
    5623.242423954259],
   ["Gaseous",
    "ACM energy demand",
    0.0,
    0.0,
    0.0,
    0.0,
    0.0,
    0.0,
    0.0,
    0.0,
    0.0],
   ["Solid", "ACM energy demand", 0.0, 0.0, 0.0, 0.0, 0.0, 0.0, 0.0, 0.0, 0.0],
   ["Gas", "Losses", 0.0, 0.0, 0.0, 0.0, 0.0, 0.0, 0.0, 0.0, 0.0]],
 "ghg"=>
  [["Mt CO2e",
    2010.0,
    2015.0,
    2020.0,
    2025.0,
    2030.0,
    2035.0,
    2040.0,
    2045.0,
    2050.0],
   ["Fuel Combustion",
    :name,
    :name,
    :name,
    :name,
    :name,
    :name,
    :name,
    :name,
    :name],
   [:name, :name, :name, :name, :name, :name, :name, :name, :name, :name],
   [:name, :name, :name, :name, :name, :name, :name, :name, :name, :name],
   [:name, :name, :name, :name, :name, :name, :name, :name, :name, :name],
   [:name, :name, :name, :name, :name, :name, :name, :name, :name, :name],
   [:name, :name, :name, :name, :name, :name, :name, :name, :name, :name],
   [:name, :name, :name, :name, :name, :name, :name, :name, :name, :name],
   [:name, :name, :name, :name, :name, :name, :name, :name, :name, :name],
   [:name, :name, :name, :name, :name, :name, :name, :name, :name, :name],
   [:name, :name, :name, :name, :name, :name, :name, :name, :name, :name],
   ["Total", :name, :name, :name, :name, :name, :name, :name, :name, :name],
   ["Targets", 603.6, 556.4, 508.8, 390.0, nil, nil, nil, nil, 159.917234]],
 "ghg_reduction_from_1990"=>:name,
 "final_energy_demand"=>
  [["Vector",
    "2011",
    2015.0,
    2020.0,
    2025.0,
    2030.0,
    2035.0,
    2040.0,
    2045.0,
    2050.0],
   ["Transport",
    442.73097636878356,
    530.666236393318,
    673.939343589871,
    877.1240624783054,
    1182.9513965628455,
    1507.4172088939038,
    1806.7424479882025,
    1851.9301509888305,
    2010.6699615706193],
   ["Domestic",
    432.5750228166986,
    452.30007523320705,
    476.07917781627515,
    498.76218763371463,
    520.2045598961595,
    540.2443672406355,
    558.6995725077252,
    575.3648195539636,
    590.0075768940851],
   ["Commerce",
    24.388695032799998,
    18.12215225827748,
    25.86287503639954,
    36.5751446681173,
    51.25409289799037,
    71.1697129889953,
    97.92122639642851,
    133.4947316822199,
    180.32154757049844],
   ["Industrial process",
    599.8231588308404,
    739.8609119729579,
    961.7515953576238,
    1250.195751513391,
    1625.161349458808,
    2112.604764064265,
    2746.2702293879743,
    3570.026747244704,
    4640.906307434921],
   ["ACM",
    40.407039399999995,
    52.1582341841938,
    77.67940279698927,
    127.72906554860685,
    231.885958101978,
    414.2563722361921,
    895.0367654353281,
    2135.0763581536944,
    5623.242423954258],
   ["Total",
    1539.9248924491226,
    1793.107610041954,
    2215.312394597159,
    2790.386211842135,
    3611.457356917781,
    4645.692425423991,
    6104.670241715659,
    8265.892807623411,
    13045.147817424382]],
 "primary_energy_supply"=>
  [["Vector",
    2010.0,
    2015.0,
    2020.0,
    2025.0,
    2030.0,
    2035.0,
    2040.0,
    2045.0,
    2050.0],
   ["Indigenous Gas",
    1013.8113436715662,
    1269.6495217539712,
    1557.4586778414168,
    1730.3548727735642,
    2096.908855709651,
    2377.089475678361,
    2892.178413294557,
    3382.2998240896377,
    4197.784919618549],
   ["Imported Gas", 0.0, 0.0, 0.0, 0.0, 0.0, 0.0, 0.0, 0.0, 0.0],
   ["Indigenous Oil",
    511.25480000000005,
    1867.5454000000002,
    3637.3155333211257,
    4936.099168336044,
    5889.281702300769,
    6588.826198058922,
    7102.224717343599,
    7479.0099557408375,
    7755.534157781512],
   ["Imported Oil",
    39851.806315524154,
    38711.62597976159,
    47418.22122267657,
    46337.44242387556,
    56036.34838072595,
    55700.9771149616,
    66085.16948275303,
    66901.05427146622,
    80479.36088492279],
   ["Indigenous Coal",
    2.2564544444444445,
    10.406537777777778,
    13.008172222222223,
    13.008172222222223,
    13.008172222222223,
    13.008172222222223,
    15.609806666666667,
    13.008172222222223,
    13.008172222222223],
   ["Imported Coal",
    763.0971954496002,
    544.5840512730249,
    742.2301888975645,
    1073.4960881170787,
    1679.8582867945688,
    2604.643212165293,
    3903.3237996001403,
    4943.318143747269,
    6246.585859173827],
   ["Indigenous Bioenergy",
    63.32539242399999,
    82.00230564487501,
    103.99061709311322,
    127.70698275524944,
    153.6798782687683,
    182.52221182951106,
    215.0162268673356,
    252.08211958248904,
    292.94782965025405],
   ["Imported Bioenergy", 0.0, 0.0, 0.0, 0.0, 0.0, 0.0, 0.0, 0.0, 0.0],
   ["Nuclear fussion", 0.0, 0.0, 0.0, 0.0, 0.0, 0.0, 0.0, 0.0, 0.0],
   ["Geothermal",
    86.71217625,
    132.76435725,
    186.54047999999997,
    240.31660275,
    294.0927255,
    347.8688482499999,
    401.64497099999994,
    455.42109374999984,
    506.13678674999977],
   ["Agriculture",
    63.31913349999999,
    81.95849317687501,
    103.90925108111321,
    127.58806319924945,
    153.5234051687683,
    182.32818518551107,
    214.7846466793356,
    251.81298585048904,
    292.64114237425406],
   ["Hydro",
    19.3842558,
    21.814190999999997,
    24.6307068,
    27.447222599999996,
    30.263738399999998,
    33.0802542,
    35.89677,
    38.713285799999994,
    41.364124199999985],
   ["Solar", 0.0018408600000000004, 0.0, 0.0, 0.0, 0.0, 0.0, 0.0, 0.0, 0.0],
   ["Wind", 0.0034424081999999997, 0.0, 0.0, 0.0, 0.0, 0.0, 0.0, 0.0, 0.0],
   ["Wave", 0.0, 0.0, 0.0, 0.0, 0.0, 0.0, 0.0, 0.0, 0.0],
   ["Total used in Indonesia",
    42329.40839092571,
    42660.87569327269,
    53709.609724972135,
    54521.318044161555,
    66245.64831332295,
    67925.69617401906,
    80764.47346249247,
    83605.66150832352,
    99706.79910389082]],
 "test1"=>
  [["Vector",
    2010.0,
    2015.0,
    2020.0,
    2025.0,
    2030.0,
    2035.0,
    2040.0,
    2045.0,
    2050.0],
   ["Indigenous Gas",
    1013.8113436715662,
    1269.6495217539712,
    1557.4586778414168,
    1730.3548727735642,
    2096.908855709651,
    2377.089475678361,
    2892.178413294557,
    3382.2998240896377,
    4197.784919618549],
   ["Imported Gas", 0.0, 0.0, 0.0, 0.0, 0.0, 0.0, 0.0, 0.0, 0.0],
   ["Indigenous Oil",
    511.25480000000005,
    1867.5454000000002,
    3637.3155333211257,
    4936.099168336044,
    5889.281702300769,
    6588.826198058922,
    7102.224717343599,
    7479.0099557408375,
    7755.534157781512],
   ["Imported Oil",
    39851.806315524154,
    38711.62597976159,
    47418.22122267657,
    46337.44242387556,
    56036.34838072595,
    55700.9771149616,
    66085.16948275303,
    66901.05427146622,
    80479.36088492279],
   ["Indigenous Coal",
    2.2564544444444445,
    10.406537777777778,
    13.008172222222223,
    13.008172222222223,
    13.008172222222223,
    13.008172222222223,
    15.609806666666667,
    13.008172222222223,
    13.008172222222223],
   ["Imported Coal",
    763.0971954496002,
    544.5840512730249,
    742.2301888975645,
    1073.4960881170787,
    1679.8582867945688,
    2604.643212165293,
    3903.3237996001403,
    4943.318143747269,
    6246.585859173827],
   ["Indigenous Bioenergy",
    63.32539242399999,
    82.00230564487501,
    103.99061709311322,
    127.70698275524944,
    153.6798782687683,
    182.52221182951106,
    215.0162268673356,
    252.08211958248904,
    292.94782965025405],
   ["Imported Bioenergy", 0.0, 0.0, 0.0, 0.0, 0.0, 0.0, 0.0, 0.0, 0.0],
   ["Nuclear fussion", 0.0, 0.0, 0.0, 0.0, 0.0, 0.0, 0.0, 0.0, 0.0],
   ["Geothermal",
    86.71217625,
    132.76435725,
    186.54047999999997,
    240.31660275,
    294.0927255,
    347.8688482499999,
    401.64497099999994,
    455.42109374999984,
    506.13678674999977],
   ["Agriculture",
    63.31913349999999,
    81.95849317687501,
    103.90925108111321,
    127.58806319924945,
    153.5234051687683,
    182.32818518551107,
    214.7846466793356,
    251.81298585048904,
    292.64114237425406],
   ["Hydro",
    19.3842558,
    21.814190999999997,
    24.6307068,
    27.447222599999996,
    30.263738399999998,
    33.0802542,
    35.89677,
    38.713285799999994,
    41.364124199999985],
   ["Solar", 0.0018408600000000004, 0.0, 0.0, 0.0, 0.0, 0.0, 0.0, 0.0, 0.0],
   ["Wind", 0.0034424081999999997, 0.0, 0.0, 0.0, 0.0, 0.0, 0.0, 0.0, 0.0],
   ["Wave", 0.0, 0.0, 0.0, 0.0, 0.0, 0.0, 0.0, 0.0, 0.0],
   ["Total used in Indonesia",
    42329.40839092571,
    42660.87569327269,
    53709.609724972135,
    54521.318044161555,
    66245.64831332295,
    67925.69617401906,
    80764.47346249247,
    83605.66150832352,
    99706.79910389082]],
 "electricity"=>
  {"demand"=>
    [["Sector",
      2011.0,
      2015.0,
      2020.0,
      2025.0,
      2030.0,
      2035.0,
      2040.0,
      2045.0,
      2050.0],
     ["Transport",
      0.15683526486486465,
      0.2744881837803744,
      0.46260617865380504,
      37.99072271339376,
      119.16785916769685,
      279.42215358642613,
      497.17165437260286,
      607.7526005067153,
      710.2518957377364],
     ["Industry",
      34.004882980726244,
      46.4543917636261,
      67.72074783413159,
      97.57288925587525,
      139.2503801132012,
      197.16442318734693,
      277.30946912184066,
      387.81639975008846,
      539.6952021407312],
     ["Domestic",
      70.22814609747732,
      79.95612880382797,
      92.4348916855269,
      105.15786863188704,
      118.00274660975339,
      130.8418357566819,
      143.54123119245176,
      155.95981745475228,
      167.9480798228371],
     ["Commerce",
      13.644294412,
      18.12215225827748,
      25.86287503639954,
      36.5751446681173,
      51.25409289799037,
      71.1697129889953,
      97.92122639642851,
      133.4947316822199,
      180.32154757049844],
     ["Total",
      118.03415875506843,
      144.80716100951193,
      186.48112073471185,
      277.2966252692733,
      427.67507878864177,
      678.5981255194503,
      1015.9435810833238,
      1285.023549393776,
      1598.2167252718032]],
   "supply"=>
    [["Sector",
      2011.0,
      2015.0,
      2020.0,
      2025.0,
      2030.0,
      2035.0,
      2040.0,
      2045.0,
      2050.0],
     ["Conventional",
      0.107774612218,
      85.085339998392,
      85.26901231332,
      85.452667061184,
      85.63733680665601,
      85.82095640286,
      86.00455843200002,
      86.18917540615203,
      86.36964480000002],
     ["Geothermal",
      9.909963,
      15.1730694,
      21.318911999999997,
      27.4647546,
      33.610597199999994,
      39.75643979999999,
      45.90228239999999,
      52.04812499999998,
      57.84420419999997],
     ["Biomass",
      12.741380999999999,
      16.913997,
      21.384657000000004,
      25.855317,
      30.325977000000005,
      34.796637,
      39.267297,
      43.737956999999994,
      47.61252899999999],
     ["Hydro",
      18.461195999999997,
      20.775419999999997,
      23.457815999999998,
      26.140212,
      28.822608,
      31.505003999999996,
      34.1874,
      36.869795999999994,
      39.39440399999999],
     ["OTEC", 0.0017532000000000003, 0.0, 0.0, 0.0, 0.0, 0.0, 0.0, 0.0, 0.0],
     ["Wind", 0.003278484, 0.0, 0.0, 0.0, 0.0, 0.0, 0.0, 0.0, 0.0],
     ["PV",
      0.005960880000000001,
      0.041726160000000005,
      0.07749144000000001,
      0.11325672000000003,
      0.14902200000000002,
      0.18478728000000003,
      0.22055256000000004,
      0.25631784,
      0.29208312000000003],
     ["Nuclear power generation", 0.0, 0.0, 0.0, 0.0, 0.0, 0.0, 0.0, 0.0, 0.0],
     ["Steam coal PP as balancing",
      134.0045414881724,
      64.17219440676865,
      107.21413860615905,
      184.81544201566686,
      336.7106399512337,
      574.6107785720747,
      913.7181451532526,
      1170.0857468818538,
      1486.5452171742884],
     ["Total",
      175.2358486643904,
      202.16174696516066,
      258.72202735947906,
      349.84164939685087,
      515.2561809578897,
      766.6746030549347,
      1119.3002355452527,
      1389.1871181280057,
      1718.0580822942884]],
   "ghg"=>
    [["Source",
      2011.0,
      2015.0,
      2020.0,
      2025.0,
      2030.0,
      2035.0,
      2040.0,
      2045.0,
      2050.0],
     ["Fuel combustion", nil, nil, nil, nil, nil, nil, nil, nil, nil],
     ["Bioenergy credit", nil, nil, nil, nil, nil, nil, nil, nil, nil],
     ["Total", 0.0, 0.0, 0.0, 0.0, 0.0, 0.0, 0.0, 0.0, 0.0]],
   "capacity"=>
    [["Sector",
      2011.0,
      2015.0,
      2020.0,
      2025.0,
      2030.0,
      2035.0,
      2040.0,
      2045.0,
      2050.0],
     ["Coal power plant",
      12.05,
      11.544,
      22.386,
      23.85,
      16.259999999999998,
      8.148,
      3.484,
      1.394,
      0.5379999999999999],
     ["Gas combined-cycle power plant",
      8.81,
      8.8099,
      8.809800000000003,
      8.809700000000001,
      8.809600000000001,
      8.809500000000002,
      8.809400000000004,
      8.809300000000004,
      8.809200000000002],
     ["Gas turbine power plant",
      2.9700000000000006,
      2.9699,
      2.9697999999999998,
      2.9696999999999996,
      2.9696,
      2.969499999999999,
      2.969399999999999,
      2.9692999999999987,
      2.9691999999999985],
     ["Diesel power plant",
      2.598,
      2.528,
      2.458,
      2.3880000000000003,
      2.3180000000000005,
      2.2480000000000007,
      2.178000000000001,
      2.108000000000001,
      2.038000000000001],
     ["Geothermal",
      1.19,
      1.822,
      2.56,
      3.298,
      4.036,
      4.773999999999999,
      5.511999999999999,
      6.249999999999998,
      6.945999999999998],
     ["Biomass",
      1.71,
      2.27,
      2.87,
      3.47,
      4.07,
      4.67,
      5.27,
      5.869999999999999,
      6.389999999999999],
     ["Hydro",
      3.51,
      3.9499999999999997,
      4.46,
      4.97,
      5.4799999999999995,
      5.989999999999999,
      6.499999999999999,
      7.009999999999999,
      7.489999999999998],
     ["OTEC", 0.001, 0.0, 0.0, 0.0, 0.0, 0.0, 0.0, 0.0, 0.0],
     ["Wind", 0.00187, 0.0, 0.0, 0.0, 0.0, 0.0, 0.0, 0.0, 0.0],
     ["PV", 0.0, 0.0, 0.0, 0.0, 0.0, 0.0, 0.0, 0.0, 0.0],
     ["Nuclear power generation", 0.0, 0.0, 0.0, 0.0, 0.0, 0.0, 0.0, 0.0, 0.0],
     ["Steam coal PP as balancing",
      61.80138952336405,
      29.59549533962472,
      49.445956598388925,
      84.8402006029551,
      154.56824347064276,
      263.7771670537274,
      419.4456365977828,
      534.6338273510003,
      679.2300146430741],
     ["Total generation",
      94.64225952336405,
      63.48929533962472,
      95.95955659838893,
      134.5956006029551,
      198.51144347064275,
      301.3861670537274,
      454.16843659778283,
      569.0444273510003,
      714.4104146430741]]}}
