{"_id"=>"44444444444444444444444404444444404440440444404444400",
 "choices"=>
  [4.0,
   4.0,
   4.0,
   4.0,
   4.0,
   4.0,
   4.0,
   4.0,
   4.0,
   4.0,
   4.0,
   4.0,
   4.0,
   4.0,
   4.0,
   4.0,
   4.0,
   4.0,
   4.0,
   4.0,
   4.0,
   4.0,
   4.0,
   4.0,
   0.0,
   4.0,
   4.0,
   4.0,
   4.0,
   4.0,
   4.0,
   4.0,
   4.0,
   0.0,
   4.0,
   4.0,
   4.0,
   0.0,
   4.0,
   4.0,
   0.0,
   4.0,
   4.0,
   4.0,
   4.0,
   0.0,
   4.0,
   4.0,
   4.0,
   4.0,
   4.0,
   0.0,
   0.0],
 "sankey"=>
  [["From",
    "To",
    "2011",
    "2015",
    "2020",
    "2025",
    "2030",
    "2035",
    "2040",
    "2045",
    "2050"],
   ["Oil production",
    "Oil",
    43.96,
    43.260000000000005,
    35.980000000000004,
    34.580000000000005,
    38.080000000000005,
    48.02,
    56.14000000000001,
    62.02,
    52.64000000000001],
   ["Oil imports",
    "Oil",
    -0.0,
    -42.16563682092766,
    -62.85670905790792,
    -79.886572093831,
    -102.48823893747337,
    -122.71016154971201,
    -136.6595274128745,
    -159.86779397931716,
    -208.21637333778418],
   ["Gas production",
    "Natural gas",
    70.30240153999999,
    74.11123062,
    83.36507592,
    96.32045934,
    101.49724816,
    93.10173053999999,
    71.10708374,
    52.197052039999996,
    38.302872719999996],
   ["Gas imports",
    "Natural gas",
    42.56455790728978,
    20.333860350794787,
    21.262534589154185,
    31.70136105210736,
    34.827032857221795,
    8.525315568037684,
    -0.0,
    -0.0,
    -0.0],
   ["Coal production",
    "Coal",
    0.19402015859367538,
    0.22697610394573423,
    0.27615169485048247,
    0.3359791573516767,
    0.40877244291583076,
    0.4973346756472724,
    0.605079071367154,
    0.7361718419795549,
    0.8956696035158117],
   ["Coal import",
    "Coal",
    -0.0,
    -0.0,
    -0.0,
    -0.0,
    -0.0,
    -0.0,
    -0.0,
    -0.0,
    -0.0],
   ["Agriculture & land-use",
    "Bioenergy production",
    1.6100000000000005,
    1.956965062500001,
    2.504266401356825,
    3.196149035639941,
    4.079186085189414,
    5.206189990533804,
    6.644564295790345,
    8.480334901563014,
    10.823295078690128],
   ["Wastes",
    "Bioenergy production",
    -0.0,
    -0.0,
    -0.0,
    -0.0,
    -0.0,
    -0.0,
    -0.0,
    -0.0,
    -0.0],
   ["Marine algae",
    "Bioenergy production",
    0.0,
    0.0,
    0.0,
    0.00016719212763924716,
    0.006955192509792682,
    0.020364001146460302,
    0.04039361803764211,
    0.053635234546670484,
    0.06687685105569886],
   ["Oil",
    "Liquid",
    43.96,
    1.0943631790723458,
    -26.876709057907917,
    -45.306572093831,
    -64.40823893747336,
    -74.690161549712,
    -80.51952741287448,
    -97.84779397931715,
    -155.57637333778416],
   ["Natural gas",
    "Gaseous",
    112.86695944728977,
    94.44509097079478,
    104.62761050915418,
    128.02182039210737,
    136.32428101722178,
    101.62704610803767,
    71.10708374,
    52.197052039999996,
    38.302872719999996],
   ["Coal",
    "Solid",
    0.19402015859367538,
    0.22697610394573423,
    0.27615169485048247,
    0.3359791573516767,
    0.40877244291583076,
    0.4973346756472724,
    0.605079071367154,
    0.7361718419795549,
    0.8956696035158117],
   ["Liquid",
    "Over supply/exports",
    0.0,
    0.0,
    0.0,
    0.0,
    0.0,
    0.0,
    0.0,
    0.0,
    0.0],
   ["Gaseous",
    "Over supply/exports",
    42.56455790728978,
    20.333860350794787,
    21.262534589154185,
    31.70136105210736,
    34.827032857221795,
    8.525315568037684,
    0.0,
    0.0,
    0.0],
   ["Solid",
    "Over supply/exports",
    0.0,
    0.0,
    0.0,
    0.0,
    0.0,
    0.0,
    0.0,
    0.0,
    0.0],
   ["Liquid",
    "Thermal generation",
    0.01950317480477612,
    12.497370977245467,
    12.625413454039856,
    11.506732572727351,
    9.778200282349967,
    10.673553921946842,
    7.110873316358877,
    3.541029328528432,
    0.0],
   ["Gaseous",
    "Thermal generation",
    0.013649668666666667,
    20.574740632828885,
    29.501707683404984,
    37.30743692945829,
    46.260903304075654,
    71.7828879532674,
    75.95558102321583,
    80.13666476816852,
    84.28399707652622],
   ["Solid",
    "Thermal generation",
    35.92582257828499,
    45.60636890473614,
    62.76333968900137,
    84.65806272856918,
    108.30168194242738,
    130.06385070020298,
    148.18059364378698,
    162.21208479388088,
    169.40802699107854],
   ["Pembangkit listrik tenaga nuklir",
    "Thermal generation",
    0.0,
    0.0,
    5.087747205503009,
    0.0,
    5.087747205503009,
    0.0,
    5.087747205503009,
    0.0,
    5.087747205503009],
   ["Impor listrik",
    "Electricity grid",
    0.0,
    0.0,
    0.0,
    0.0,
    0.0,
    0.0,
    0.0,
    0.0,
    0.0],
   ["Thermal generation",
    "Electricity grid",
    10.463871402598278,
    23.46396969582046,
    31.645151853337914,
    40.820892409250554,
    51.167499887966976,
    67.08181327393464,
    74.43704450662081,
    80.26138789253243,
    84.49549661220979],
   ["Thermal generation",
    "Losses",
    25.49510401915816,
    55.214510818990036,
    73.24530897310831,
    92.65133982150427,
    113.17328564088602,
    145.4384793014826,
    156.81000347674092,
    165.62839099804543,
    169.19652745539497],
   ["Pembangkit panas bumi",
    "Electricity grid",
    0.8657084522785896,
    0.8657084522785896,
    2.813373456577816,
    4.761038460877042,
    6.708703465176268,
    8.656368469475494,
    10.60403347377472,
    12.551698478073947,
    14.499363482373173],
   ["Pembangkit listrik biomasa",
    "Electricity grid",
    1.0955615649183146,
    2.831802407566637,
    5.054959501289767,
    7.278116595012897,
    9.501273688736028,
    11.724430782459155,
    13.947587876182284,
    16.170744969905414,
    18.438749613069643],
   ["Pembangkit listrik hidro",
    "Electricity grid",
    1.783651109200344,
    2.354835528804814,
    3.313140980223559,
    4.6192222184006875,
    6.362171349957007,
    8.62294008598452,
    11.450370799656058,
    14.829087188306103,
    18.654168598452276],
   ["Pembangkit listrik tenaga laut (OTEC)",
    "Electricity grid",
    1.5074806534823732e-06,
    0.0,
    0.804240928632846,
    0.0,
    0.804240928632846,
    0.0,
    0.804240928632846,
    0.0,
    0.8040901805674977],
   ["Pembangkit listrik tenaga bayu",
    "Electricity grid",
    0.0001401957007738607,
    0.0002366744625967326,
    0.0009165482373172829,
    0.0031506345657781594,
    0.010820696130696474,
    0.03706894926913155,
    0.12602086018916595,
    0.4174424976784179,
    1.2719714734307825],
   ["Pembangkit listrik tenaga matahari",
    "Electricity grid",
    0.000148637592433362,
    0.00042541104041272573,
    0.0015876032502149613,
    0.005919876526225279,
    0.02204961802235597,
    0.08184293365434221,
    0.29996860055030095,
    1.0514136372484952,
    3.2033938259329315],
   ["Electricity grid",
    "Over generation/exports",
    0.0,
    10.511503594386635,
    25.971071604297673,
    30.216745028370074,
    48.58634783854933,
    61.40747990490162,
    76.80453144207979,
    80.2245482039597,
    96.69447756053755],
   ["Electricity grid", "Losses", 0.0, 0.0, 0.0, 0.0, 0.0, 0.0, 0.0, 0.0, 0.0],
   ["Electricity grid",
    "Rumah tangga - Penerangan",
    0.9184338228111901,
    0.9346037436386424,
    0.9475903178048847,
    0.9514181453897079,
    0.7837171499052,
    0.5729243124465001,
    0.611237356974318,
    0.6400714837694872,
    0.6556066429388001],
   ["Liquid",
    "Rumah tangga - Penerangan",
    0.14492978019051,
    0.1234971853826577,
    0.0984313937324654,
    0.0754972290546923,
    0.0455578598664,
    0.022832284576500002,
    0.020263104873415386,
    0.012585975511846164,
    0.0],
   ["Gaseous",
    "Rumah tangga - Penerangan",
    0.0,
    0.0,
    0.0,
    0.0,
    0.0,
    0.0,
    0.0,
    0.0,
    0.0],
   ["Solid",
    "Rumah tangga - Penerangan",
    0.0,
    0.0,
    0.0,
    0.0,
    0.0,
    0.0,
    0.0,
    0.0,
    0.0],
   ["Electricity grid",
    "Rumah tangga - Pendinginan",
    0.6716658353035174,
    0.7191013986076688,
    0.7811370718355565,
    0.8462776868546,
    0.778665783042,
    0.6820007198760001,
    0.681593439153481,
    0.6712136425781665,
    0.6487828682737334],
   ["Liquid",
    "Rumah tangga - Pendinginan",
    0.0,
    0.0,
    0.0,
    0.0,
    0.0,
    0.0,
    0.0,
    0.0,
    0.0],
   ["Gaseous",
    "Rumah tangga - Pendinginan",
    0.0,
    0.0,
    0.0,
    0.0,
    0.0,
    0.0,
    0.0,
    0.0,
    0.0],
   ["Solid",
    "Rumah tangga - Pendinginan",
    0.0,
    0.0,
    0.0,
    0.0,
    0.0,
    0.0,
    0.0,
    0.0,
    0.0],
   ["Electricity grid",
    "Rumah tangga - Memasak",
    3.22364369271,
    3.7873221878437384,
    4.483919736733327,
    5.1660722989996435,
    5.277226215139739,
    5.160855642706615,
    5.600022026503017,
    5.989391388168159,
    6.317820421569196],
   ["Liquid",
    "Rumah tangga - Memasak",
    6.97951312144002,
    6.3807989041048385,
    5.623241819343115,
    4.859062454048331,
    3.706526014378493,
    2.6600733264185763,
    2.0440257308751155,
    1.44635454659584,
    0.8743212513741299],
   ["Gaseous",
    "Rumah tangga - Memasak",
    18.44472283736334,
    20.093427492034266,
    22.088646889224037,
    23.991628104345374,
    23.34718095748877,
    21.914540543154807,
    22.949971320177383,
    23.78855504172,
    24.39696043490265],
   ["Solid",
    "Rumah tangga - Memasak",
    10.735382550170039,
    9.795968273860153,
    8.64764643488452,
    7.535275904847649,
    5.8566691148210035,
    4.3550468729250005,
    3.5686282718211846,
    2.8433117122984,
    2.1858031284353245],
   ["Electricity grid",
    "Rumah tangga - Lainnya",
    2.2927326087695405,
    2.4044522505597925,
    2.5425386559809997,
    2.6780658907265846,
    2.6027149793148,
    2.4826720206015,
    2.57527531270118,
    2.6598235863051283,
    2.7347539381617],
   ["Liquid",
    "Rumah tangga - Lainnya",
    0.3617955096726601,
    0.31772083875360774,
    0.2641074088923,
    0.21251071882061534,
    0.15129709017360002,
    0.09893989983150002,
    0.06238409602232052,
    0.02927404674607182,
    0.0],
   ["Gaseous",
    "Rumah tangga - Lainnya",
    0.0,
    0.0,
    0.0,
    0.0,
    0.0,
    0.0,
    0.0,
    0.0,
    0.0],
   ["Solid",
    "Rumah tangga - Lainnya",
    0.0,
    0.0,
    0.0,
    0.0,
    0.0,
    0.0,
    0.0,
    0.0,
    0.0],
   ["Electricity grid",
    "Komersial - Penerangan",
    0.7460296474634568,
    0.925647880092237,
    1.1874207574187645,
    1.4852522171633156,
    1.8021381441224542,
    2.104071716287168,
    2.3316863388752087,
    2.389211845900824,
    2.130298882888914],
   ["Liquid",
    "Komersial - Penerangan",
    0.0,
    0.0,
    0.0,
    0.0,
    0.0,
    0.0,
    0.0,
    0.0,
    0.0],
   ["Gaseous",
    "Komersial - Penerangan",
    0.0,
    0.0,
    0.0,
    0.0,
    0.0,
    0.0,
    0.0,
    0.0,
    0.0],
   ["Solid",
    "Komersial - Penerangan",
    0.0,
    0.0,
    0.0,
    0.0,
    0.0,
    0.0,
    0.0,
    0.0,
    0.0],
   ["Electricity grid",
    "Komersial - Pendinginan",
    1.86507411865864,
    2.3640217158767376,
    3.130900422800391,
    4.0750393517135235,
    5.202935849124777,
    6.500510313412765,
    7.9199574273386055,
    9.361836489316754,
    10.651494414444597],
   ["Liquid",
    "Komersial - Pendinginan",
    0.0,
    0.0,
    0.0,
    0.0,
    0.0,
    0.0,
    0.0,
    0.0,
    0.0],
   ["Gaseous",
    "Komersial - Pendinginan",
    0.0,
    0.0,
    0.0,
    0.0,
    0.0,
    0.0,
    0.0,
    0.0,
    0.0],
   ["Solid",
    "Komersial - Pendinginan",
    0.0,
    0.0,
    0.0,
    0.0,
    0.0,
    0.0,
    0.0,
    0.0,
    0.0],
   ["Electricity grid",
    "Komersial - Memasak",
    0.009331840000000001,
    0.016889668622853543,
    0.031051660280112116,
    0.05228093191166365,
    0.0828639104828314,
    0.12532061447857124,
    0.1821372434959394,
    0.2552861480353458,
    0.3454488748372069],
   ["Liquid",
    "Komersial - Memasak",
    0.466592,
    0.5558236401339075,
    0.6769261941064442,
    0.8034753746424098,
    0.925914130177725,
    1.0304139412682523,
    1.0986988559271185,
    1.1086712714677875,
    1.0363466245116206],
   ["Gaseous",
    "Komersial - Memasak",
    0.14930944000000002,
    0.2561087932992701,
    0.4539752732952391,
    0.7478924891363252,
    1.1683811378079227,
    1.7489187976120606,
    2.5223070526711866,
    3.5141961749551314,
    4.732649585269734],
   ["Solid",
    "Komersial - Memasak",
    0.30795071999999996,
    0.368808945746311,
    0.45273320688403457,
    0.5426210406831617,
    0.6330082205144989,
    0.7157199537998402,
    0.7796649100616504,
    0.8110805617580122,
    0.794532412125575],
   ["Electricity grid",
    "Komersial - Lainnya",
    1.1612552,
    1.5064451106953485,
    2.0617344347883306,
    2.7876689534925236,
    3.722204339199075,
    4.905658455712054,
    6.377882804492933,
    8.173823061556575,
    10.317047070816177],
   ["Liquid",
    "Komersial - Lainnya",
    0.0,
    0.0,
    0.0,
    0.0,
    0.0,
    0.0,
    0.0,
    0.0,
    0.0],
   ["Gaseous",
    "Komersial - Lainnya",
    0.0,
    0.0,
    0.0,
    0.0,
    0.0,
    0.0,
    0.0,
    0.0,
    0.0],
   ["Solid",
    "Komersial - Lainnya",
    0.0,
    0.0,
    0.0,
    0.0,
    0.0,
    0.0,
    0.0,
    0.0,
    0.0],
   ["Electricity grid",
    "Industri",
    2.923893635488069,
    4.496050784563883,
    5.350382944698335,
    5.658747947787998,
    5.818136130310003,
    5.859615726761044,
    5.808972947045333,
    5.687528837444699,
    5.512836563514546],
   ["Liquid",
    "Industri",
    10.104154328807237,
    12.7359439637242,
    12.491995863637701,
    11.335013721333215,
    10.276557135514192,
    9.309553564641083,
    8.427219401084098,
    7.623091253399033,
    6.89104570439318],
   ["Gaseous",
    "Industri",
    20.909757251480038,
    26.56332414721254,
    26.295016692749684,
    24.0652049365857,
    21.9938965193768,
    20.074923582577235,
    18.301344080211198,
    16.665713089940215,
    15.160300549664996],
   ["Solid",
    "Industri",
    16.41762746422469,
    18.114540366637353,
    14.774995701057447,
    10.848487568004165,
    7.646844540504951,
    5.053201344320669,
    2.968235961439163,
    1.3076499612492347,
    0.0],
   ["Electricity grid",
    "Transportasi barang",
    0.0,
    0.0,
    0.0,
    0.0,
    0.0,
    0.0,
    0.0,
    0.0,
    0.0],
   ["Liquid",
    "Transportasi barang",
    13.098860400939314,
    16.899924460610453,
    23.192447311974142,
    31.752137648744664,
    46.01278134774661,
    66.48880593335294,
    84.27882894952387,
    106.46018606232327,
    133.95462293943018],
   ["Gaseous",
    "Transportasi barang",
    0.0,
    0.011507618833253989,
    0.03911260052966998,
    0.09169503347862527,
    0.2009909526552824,
    0.40926343128766784,
    0.7085036295272862,
    1.1881427115561496,
    1.9464663733438383],
   ["Solid",
    "Transportasi barang",
    0.0,
    0.0,
    0.0,
    0.0,
    0.0,
    0.0,
    0.0,
    0.0,
    0.0],
   ["Electricity grid",
    "Transportasi penumpang perkotaan",
    0.013485405405405387,
    0.023601735492723507,
    0.03977697150935556,
    0.9350344596410046,
    1.9870116417169508,
    2.800958136536106,
    3.5113797757309246,
    4.117618312923724,
    4.617773910135106],
   ["Liquid",
    "Transportasi penumpang perkotaan",
    21.889606396143897,
    23.297488930093696,
    26.065207938156117,
    29.016669391854887,
    34.213193444780636,
    31.78051347420985,
    30.631994032626388,
    30.325919150378493,
    30.26025522891618],
   ["Gaseous",
    "Transportasi penumpang perkotaan",
    0.12661952311616312,
    0.3167260913669953,
    0.7745534718116204,
    1.652599131710989,
    3.2727129433586795,
    6.07874069397147,
    10.959660339557816,
    19.356761573916646,
    33.664931220306144],
   ["Solid",
    "Transportasi penumpang perkotaan",
    0.0,
    0.0,
    0.0,
    0.0,
    0.0,
    0.0,
    0.0,
    0.0,
    0.0],
   ["Electricity grid",
    "Transportasi penumpang antar-kota",
    0.0,
    0.0,
    0.0,
    0.0,
    0.0,
    0.0,
    0.0,
    0.0,
    0.0],
   ["Liquid",
    "Transportasi penumpang antar-kota",
    0.8689564763760673,
    0.9644763583515037,
    1.0970116902344749,
    1.2404408604341062,
    1.4104513555368854,
    1.6023125035739,
    1.819516800077912,
    2.065057013949605,
    2.3544627060072694],
   ["Gaseous",
    "Transportasi penumpang antar-kota",
    0.0,
    0.004830237733220608,
    0.01270895403582252,
    0.023093269162573454,
    0.03663742280644565,
    0.05409309461468381,
    0.07639292414961008,
    0.1046922708690265,
    0.14036921412621503],
   ["Solid",
    "Transportasi penumpang antar-kota",
    0.0,
    0.0,
    0.0,
    0.0,
    0.0,
    0.0,
    0.0,
    0.0,
    0.0],
   ["Electricity grid",
    "Transportasi udara",
    0.0,
    0.0,
    0.0,
    0.0,
    0.0,
    0.0,
    0.0,
    0.0,
    0.0],
   ["Liquid",
    "Transportasi udara",
    2.9394400000000003,
    4.886830710959442,
    8.507684959977915,
    14.820421066957863,
    23.59105473978353,
    37.54803812925649,
    47.35819923031777,
    59.71631229047182,
    75.29164000684254],
   ["Gaseous",
    "Transportasi udara",
    0.0,
    0.0,
    0.0,
    0.0,
    0.0,
    0.0,
    0.0,
    0.0,
    0.0],
   ["Solid",
    "Transportasi udara",
    0.0,
    0.0,
    0.0,
    0.0,
    0.0,
    0.0,
    0.0,
    0.0,
    0.0],
   ["Electricity grid",
    "Pertanian, kontruksi & pertambangan",
    0.0,
    0.0,
    0.0,
    0.0,
    0.0,
    0.0,
    0.0,
    0.0,
    0.0],
   ["Liquid",
    "Pertanian, kontruksi & pertambangan",
    3.47438,
    3.9664851631016846,
    4.680586114214756,
    5.523017005414264,
    6.516794354678898,
    6.845385366446855,
    7.883193142486441,
    9.077937348677658,
    10.45328244716259],
   ["Gaseous",
    "Pertanian, kontruksi & pertambangan",
    0.0,
    0.0,
    0.0,
    0.0,
    0.0,
    0.0,
    0.0,
    0.0,
    0.0],
   ["Solid",
    "Pertanian, kontruksi & pertambangan",
    0.0,
    0.0,
    0.0,
    0.0,
    0.0,
    0.0,
    0.0,
    0.0,
    0.0],
   ["Gas", "Losses", 0.0, 0.0, 0.0, 0.0, 0.0, 0.0, 0.0, 0.0, 0.0]],
 "ghg"=>
  [["Mt CO2e",
    2010.0,
    2015.0,
    2020.0,
    2025.0,
    2030.0,
    2035.0,
    2040.0,
    2045.0,
    2050.0],
   ["Fuel Combustion",
    :name,
    :name,
    :name,
    :name,
    :name,
    :name,
    :name,
    :name,
    :name],
   [:name, :name, :name, :name, :name, :name, :name, :name, :name, :name],
   [:name, :name, :name, :name, :name, :name, :name, :name, :name, :name],
   [:name, :name, :name, :name, :name, :name, :name, :name, :name, :name],
   [:name, :name, :name, :name, :name, :name, :name, :name, :name, :name],
   [:name, :name, :name, :name, :name, :name, :name, :name, :name, :name],
   [:name, :name, :name, :name, :name, :name, :name, :name, :name, :name],
   [:name, :name, :name, :name, :name, :name, :name, :name, :name, :name],
   [:name, :name, :name, :name, :name, :name, :name, :name, :name, :name],
   [:name, :name, :name, :name, :name, :name, :name, :name, :name, :name],
   ["Total", :name, :name, :name, :name, :name, :name, :name, :name, :name],
   ["Targets", 603.6, 556.4, 508.8, 390.0, nil, nil, nil, nil, 159.917234]],
 "ghg_reduction_from_1990"=>:name,
 "final_energy_demand"=>
  [["Vector",
    "2011",
    2015.0,
    2020.0,
    2025.0,
    2030.0,
    2035.0,
    2040.0,
    2045.0,
    2050.0],
   ["Transport",
    38.93696820198085,
    46.40538614344129,
    59.728503898229114,
    79.53209086198471,
    110.72483384838502,
    146.76272539680312,
    179.3444756815116,
    223.33468938638873,
    282.2305215991075],
   ["Domestic",
    43.77281975843081,
    44.55689227478537,
    45.47725972843121,
    46.3158084330872,
    42.54955516413001,
    37.949885622536996,
    38.113400659101416,
    38.0805814236931,
    37.814048685655536],
   ["Commerce",
    4.705542966122097,
    5.993745754466665,
    7.994741949573317,
    10.494230358742923,
    13.537445731429285,
    17.130613792570713,
    21.212334632862643,
    25.61410555299043,
    30.007817864893827],
   ["Industri",
    51.57550806800003,
    63.39286852172315,
    60.80620587716851,
    54.32449492623785,
    48.820258873966985,
    44.23439891279298,
    40.530626520993344,
    37.697111823952994,
    35.74914071224691],
   ["Pertanian, Kontruksi & Pertambangan",
    3.47438,
    3.9664851631016846,
    4.680586114214756,
    5.523017005414263,
    6.516794354678899,
    6.845385366446855,
    7.883193142486441,
    9.077937348677658,
    10.45328244716259],
   ["Total",
    142.46521899453379,
    164.31537785751814,
    178.6872975676169,
    196.18964158546692,
    222.1488879725902,
    252.92300909115067,
    287.08403063695545,
    333.80442553570293,
    396.2548113090663]],
 "primary_energy_supply"=>
  [["Vector",
    2010.0,
    2015.0,
    2020.0,
    2025.0,
    2030.0,
    2035.0,
    2040.0,
    2045.0,
    2050.0],
   ["Indigenous Gas",
    27.73784363271021,
    53.777370269205214,
    62.10254133084581,
    64.61909828789264,
    66.6702153027782,
    84.57641497196231,
    71.10708374,
    52.197052039999996,
    38.302872719999996],
   ["Imported Gas",
    0.0,
    0.0,
    0.0,
    0.0,
    0.0,
    0.0,
    12.825439335184768,
    32.721245482408726,
    51.412900979043314],
   ["Indigenous Oil",
    43.96,
    43.260000000000005,
    35.980000000000004,
    34.580000000000005,
    38.080000000000005,
    48.02,
    56.14000000000001,
    62.02,
    52.64000000000001],
   ["Imported Oil",
    19.282940387774488,
    42.16563682092766,
    62.85670905790792,
    79.886572093831,
    102.48823893747337,
    122.71016154971201,
    136.6595274128745,
    159.86779397931716,
    208.21637333778418],
   ["Indigenous Coal",
    0.19402015859367538,
    0.22697610394573423,
    0.27615169485048247,
    0.3359791573516767,
    0.40877244291583076,
    0.4973346756472724,
    0.605079071367154,
    0.7361718419795549,
    0.8956696035158117],
   ["Imported Coal",
    63.558785770486054,
    74.10361316490977,
    86.93070773948449,
    103.97358031051051,
    122.95487873983032,
    140.8716156039491,
    156.39949995510588,
    168.36189379178293,
    173.9481802965259],
   ["Indigenous Bioenergy",
    5.444621546686157,
    11.868720170575665,
    20.198291639283738,
    28.67594018066526,
    37.36375128719878,
    46.347996810624366,
    55.8164825110438,
    66.23556184988955,
    78.78935909271917],
   ["Imported Bioenergy", 0.0, 0.0, 0.0, 0.0, 0.0, 0.0, 0.0, 0.0, 0.0],
   ["Fusi nuklir",
    0.0,
    0.0,
    14.83926268271711,
    0.0,
    14.83926268271711,
    0.0,
    14.83926268271711,
    0.0,
    14.83926268271711],
   ["Panas bumi",
    7.574948957437659,
    7.574948957437659,
    24.61701774505589,
    41.659086532674124,
    58.701155320292344,
    75.74322410791056,
    92.78529289552881,
    109.82736168314703,
    126.86943047076527],
   ["Pertanian",
    5.444465477214102,
    11.868273488983231,
    20.196624655871013,
    28.669724310312724,
    37.340599188275306,
    46.26206173028731,
    55.50151548046598,
    65.13157753077863,
    75.42579557548959],
   ["Hidro",
    1.8728336646603612,
    2.472577305245055,
    3.4787980292347367,
    4.850183329320722,
    6.6802799174548575,
    9.054087090283748,
    12.02288933963886,
    15.570541547721408,
    19.58687702837489],
   ["Solar",
    1.5828546861564917e-06,
    0.0,
    0.8444529750644884,
    0.0,
    0.8444529750644884,
    0.0,
    0.8444529750644884,
    0.0,
    0.8442946895958726],
   ["Bayu",
    0.00014720548581255373,
    0.00024850818572656926,
    0.000962375649183147,
    0.0033081662940670675,
    0.011361730937231298,
    0.03892239673258813,
    0.13232190319862425,
    0.4383146225623388,
    1.3355700471023217],
   ["Gelombang laut", 0.0, 0.0, 0.0, 0.0, 0.0, 0.0, 0.0, 0.0, 0.0],
   ["Total used in Indonesia",
    170.71577540219482,
    224.93858770604587,
    286.15382366579615,
    328.36700303017,
    400.45602149811316,
    466.4522773019204,
    533.3728003796442,
    587.751388634849,
    670.9863133876064]],
 "dummy"=>0,
 "dummy1"=>
  [["Code",
    "Vector",
    2010.0,
    2015.0,
    2020.0,
    2025.0,
    2030.0,
    2035.0,
    2040.0,
    2045.0,
    2050.0],
   [nil,
    "Production",
    204.9929035191338,
    278.94911104145433,
    367.5657329129233,
    443.1590713743506,
    556.68676879166,
    670.3186438449352,
    788.7288431749455,
    906.9433178636912,
    1070.8047156971106],
   [nil,
    "Demand",
    142.46521899453379,
    177.16870505511812,
    210.0976012582557,
    247.94218557870036,
    301.76891002632783,
    364.0115004392786,
    430.6007170952204,
    518.590143547141,
    635.0704573740459],
   [nil,
    "Selisih",
    62.527684524600005,
    101.7804059863362,
    157.4681316546676,
    195.21688579565026,
    254.9178587653322,
    306.3071434056566,
    358.1281260797251,
    388.35317431655017,
    435.73425832306475]],
 "dummy3"=>
  [["Vector",
    2010.0,
    2015.0,
    2020.0,
    2025.0,
    2030.0,
    2035.0,
    2040.0,
    2045.0,
    2050.0],
   ["Production",
    204.9929035191338,
    278.94911104145433,
    367.5657329129233,
    443.1590713743506,
    556.68676879166,
    670.3186438449352,
    788.7288431749455,
    906.9433178636912,
    1070.8047156971106],
   ["Demand",
    142.46521899453379,
    177.16870505511812,
    210.0976012582557,
    247.94218557870036,
    301.76891002632783,
    364.0115004392786,
    430.6007170952204,
    518.590143547141,
    635.0704573740459],
   ["Selisih",
    62.527684524600005,
    101.7804059863362,
    157.4681316546676,
    195.21688579565026,
    254.9178587653322,
    306.3071434056566,
    358.1281260797251,
    388.35317431655017,
    435.73425832306475]],
 "electricity"=>
  {"demand"=>
    [["Sector",
      2011.0,
      2015.0,
      2020.0,
      2025.0,
      2030.0,
      2035.0,
      2040.0,
      2045.0,
      2050.0],
     ["Transport",
      0.013485405405405387,
      0.023601735492723507,
      0.03977697150935556,
      0.9350344596410046,
      1.9870116417169508,
      2.800958136536106,
      3.5113797757309246,
      4.117618312923724,
      4.617773910135106],
     ["Industry",
      2.923893635488069,
      4.496050784563883,
      5.350382944698335,
      5.658747947787998,
      5.818136130310003,
      5.859615726761044,
      5.808972947045333,
      5.687528837444699,
      5.512836563514546],
     ["Domestic",
      7.106475959594248,
      7.845479580649842,
      8.755185782354769,
      9.641834021970537,
      9.442324127401738,
      8.898452695630615,
      9.468128135331996,
      9.96050010082094,
      10.356963870943428],
     ["Commerce",
      3.781690806122097,
      4.813004375287177,
      6.411107275287598,
      8.400241454281026,
      10.810142242929137,
      13.635561099890559,
      16.811663814202685,
      20.1801575448095,
      23.444289242986894],
     ["Total",
      13.825545806609817,
      17.178136475993625,
      20.556452973850057,
      24.635857883680565,
      28.057614142357828,
      31.194587658818325,
      35.60014467231093,
      39.94580479599887,
      43.93186358757997]],
   "supply"=>
    [["Sector",
      2011.0,
      2015.0,
      2020.0,
      2025.0,
      2030.0,
      2035.0,
      2040.0,
      2045.0,
      2050.0],
     ["Conventional",
      10.463871402598278,
      23.46396969582046,
      31.645151853337914,
      40.820892409250554,
      51.167499887966976,
      66.86473605983318,
      73.97763977747205,
      79.55965564833637,
      83.57932524505588],
     ["Pembangkit panas bumi",
      0.8657084522785896,
      0.8657084522785896,
      2.813373456577816,
      4.761038460877042,
      6.708703465176268,
      8.656368469475494,
      10.60403347377472,
      12.551698478073947,
      14.499363482373173],
     ["Pembangkit listrik biomasa",
      1.0955615649183146,
      2.831802407566637,
      5.054959501289767,
      7.278116595012897,
      9.501273688736028,
      11.724430782459155,
      13.947587876182284,
      16.170744969905414,
      18.438749613069643],
     ["Pembangkit listrik hidro",
      1.783651109200344,
      2.354835528804814,
      3.313140980223559,
      4.6192222184006875,
      6.362171349957007,
      8.62294008598452,
      11.450370799656058,
      14.829087188306103,
      18.654168598452276],
     ["Pembangkit listrik tenaga laut (OTEC)",
      1.5074806534823732e-06,
      0.0,
      0.804240928632846,
      0.0,
      0.804240928632846,
      0.0,
      0.804240928632846,
      0.0,
      0.8040901805674977],
     ["Pembangkit listrik tenaga bayu",
      0.0001401957007738607,
      0.0002366744625967326,
      0.0009165482373172829,
      0.0031506345657781594,
      0.010820696130696474,
      0.03706894926913155,
      0.12602086018916595,
      0.4174424976784179,
      1.2719714734307825],
     ["Pembangkit listrik tenaga matahari",
      0.000148637592433362,
      0.00042541104041272573,
      0.0015876032502149613,
      0.005919876526225279,
      0.02204961802235597,
      0.08184293365434221,
      0.29996860055030095,
      1.0514136372484952,
      3.2033938259329315],
     ["Pembangkit listrik tenaga nuklir",
      0.0,
      0.0,
      5.087747205503009,
      0.0,
      5.087747205503009,
      0.0,
      5.087747205503009,
      0.0,
      5.087747205503009],
     ["Penyeimbang listrik", 0.0, 0.0, 0.0, 0.0, 0.0, 0.0, 0.0, 0.0, 0.0],
     ["Total",
      14.209082869769388,
      29.51697816997351,
      48.72111807705244,
      57.48834019463318,
      79.66450684012518,
      95.98738728067582,
      116.29760952196044,
      124.58004241954876,
      145.5388096243852]],
   "ghg"=>
    [["Source",
      2011.0,
      2015.0,
      2020.0,
      2025.0,
      2030.0,
      2035.0,
      2040.0,
      2045.0,
      2050.0],
     ["Fuel combustion", nil, nil, nil, nil, nil, nil, nil, nil, nil],
     ["Bioenergy credit", nil, nil, nil, nil, nil, nil, nil, nil, nil],
     ["Total", 0.0, 0.0, 0.0, 0.0, 0.0, 0.0, 0.0, 0.0, 0.0]],
   "capacity"=>
    [["Sector",
      2011.0,
      2015.0,
      2020.0,
      2025.0,
      2030.0,
      2035.0,
      2040.0,
      2045.0,
      2050.0],
     ["Pembangkit listrik batubara",
      16.318,
      5.13,
      8.65,
      11.07,
      12.65,
      12.7,
      11.22,
      8.83,
      6.35],
     ["Pembangkit listrik gas combined-cycle",
      8.81,
      10.0199,
      14.229800000000003,
      15.999699999999999,
      17.9996,
      24.9995,
      24.999400000000005,
      24.9993,
      24.999200000000002],
     ["Pembangkit listrik gas turbin",
      2.9700000000000006,
      6.6099,
      7.8797999999999995,
      10.2197,
      12.5596,
      19.7295,
      19.729400000000002,
      19.729300000000002,
      19.729200000000002],
     ["Pembangkit listrik diesel",
      2.598,
      1.996,
      1.353,
      0.71,
      0.06699999999999995,
      -0.5760000000000001,
      -1.219,
      -1.862,
      -2.431],
     ["Pembangkit panas bumi",
      1.209,
      1.209,
      3.9290000000000003,
      6.649000000000001,
      9.369000000000002,
      12.089000000000002,
      14.809000000000003,
      17.529000000000003,
      20.249000000000002],
     ["Pembangkit listrik biomasa",
      1.71,
      4.42,
      7.890000000000001,
      11.360000000000001,
      14.830000000000002,
      18.3,
      21.77,
      25.24,
      28.779999999999998],
     ["Pembangkit listrik hidro",
      3.944,
      5.207,
      7.3260000000000005,
      10.214,
      14.068000000000001,
      19.067,
      25.319,
      32.79,
      41.248],
     ["Pembangkit listrik tenaga laut (OTEC)",
      1.0e-05,
      0.0,
      5.335,
      0.0,
      5.335,
      0.0,
      5.335,
      0.0,
      5.334],
     ["Pembangkit listrik tenaga bayu",
      0.00093,
      0.00157,
      0.00608,
      0.0209,
      0.07178,
      0.2459,
      0.83597,
      2.76914,
      8.43773],
     ["Pembangkit listrik tenaga matahari",
      0.0,
      0.0,
      0.0,
      0.0,
      0.0,
      0.0,
      0.0,
      0.0,
      0.0],
     ["Pembangkit listrik tenaga nuklir",
      0.0,
      0.0,
      7.5,
      0.0,
      7.5,
      0.0,
      7.5,
      0.0,
      7.5],
     ["Penyeimbang listrik", 0.0, 0.0, 0.0, 0.0, 0.0, 0.0, 0.0, 0.0, 0.0],
     ["Total generation",
      37.55994,
      34.59337,
      64.09868,
      66.2433,
      94.44998,
      106.5549,
      130.29877,
      130.02474,
      160.19612999999998]]},
 "heating"=>
  [["2050 Split of heating technology", "Residential", "Commercial"],
   [:ref, :ref, :ref],
   [:ref, :ref, :ref],
   [:ref, :ref, :ref],
   [:ref, :ref, :ref],
   [:ref, :ref, :ref],
   [:ref, :ref, :ref],
   [:ref, :ref, :ref],
   [:ref, :ref, :ref],
   [:ref, :ref, :ref],
   [:ref, :ref, :ref],
   [:ref, :ref, :ref],
   [:ref, :ref, :ref],
   [:ref, :ref, :ref],
   [:ref, :ref, :ref]],
 "costs"=>
  [["name",
    "low",
    "point",
    "high",
    "range",
    "finance_low",
    "finance_point",
    "finance_high",
    "finance_range"],
   ["Conventional thermal plant",
    :name,
    :name,
    :name,
    :name,
    0.0,
    :name,
    :name,
    :name],
   ["Combustion + CCS", :name, :name, :name, :name, 0.0, :name, :name, :name],
   ["Nuclear power", :name, :name, :name, :name, 0.0, :name, :name, :name],
   ["Onshore wind", :name, :name, :name, :name, 0.0, :name, :name, :name],
   ["Offshore wind", :name, :name, :name, :name, 0.0, :name, :name, :name],
   ["Hydroelectric", :name, :name, :name, :name, 0.0, :name, :name, :name],
   ["Wave and Tidal", :name, :name, :name, :name, 0.0, :name, :name, :name],
   ["Geothermal", :name, :name, :name, :name, 0.0, :name, :name, :name],
   ["Distributed solar PV",
    :name,
    :name,
    :name,
    :name,
    0.0,
    :name,
    :name,
    :name],
   ["Distributed solar thermal",
    :name,
    :name,
    :name,
    :name,
    0.0,
    :name,
    :name,
    :name],
   ["Micro wind", :name, :name, :name, :name, 0.0, :name, :name, :name],
   ["Biomatter to fuel conversion",
    :name,
    :name,
    :name,
    :name,
    0.0,
    :name,
    :name,
    :name],
   ["Bioenergy imports", :name, :name, :name, :name, 0.0, :name, :name, :name],
   ["Agriculture and land use",
    :name,
    :name,
    :name,
    :name,
    0.0,
    :name,
    :name,
    :name],
   ["Energy from waste", :name, :name, :name, :name, 0.0, :name, :name, :name],
   ["Waste arising", :name, :name, :name, :name, 0.0, :name, :name, :name],
   ["Marine algae", :name, :name, :name, :name, 0.0, :name, :name, :name],
   ["Electricity imports",
    :name,
    :name,
    :name,
    :name,
    0.0,
    :name,
    :name,
    :name],
   ["Electricity Exports",
    :name,
    :name,
    :name,
    :name,
    0.0,
    :name,
    :name,
    :name],
   ["Electricity grid distribution",
    :name,
    :name,
    :name,
    :name,
    0.0,
    :name,
    :name,
    :name],
   ["Storage, demand shifting, backup",
    :name,
    :name,
    :name,
    :name,
    0.0,
    :name,
    :name,
    :name],
   ["H2 Production", :name, :name, :name, :name, 0.0, :name, :name, :name],
   ["Domestic heating", :name, :name, :name, :name, 0.0, :name, :name, :name],
   ["Domestic insulation",
    :name,
    :name,
    :name,
    :name,
    0.0,
    :name,
    :name,
    :name],
   ["Commercial heating and cooling",
    :name,
    :name,
    :name,
    :name,
    0.0,
    :name,
    :name,
    :name],
   ["Domestic lighting, appliances, and cooking",
    :name,
    :name,
    :name,
    :name,
    0.0,
    :name,
    :name,
    :name],
   ["Commercial lighting, appliances, and catering",
    :name,
    :name,
    :name,
    :name,
    0.0,
    :name,
    :name,
    :name],
   ["Industrial processes",
    :name,
    :name,
    :name,
    :name,
    0.0,
    :name,
    :name,
    :name],
   ["Conventional cars and buses",
    :name,
    :name,
    :name,
    :name,
    0.0,
    :name,
    :name,
    :name],
   ["Hybrid cars and buses",
    :name,
    :name,
    :name,
    :name,
    0.0,
    :name,
    :name,
    :name],
   ["Electric cars and buses",
    :name,
    :name,
    :name,
    :name,
    0.0,
    :name,
    :name,
    :name],
   ["Fuel cell cars and buses",
    :name,
    :name,
    :name,
    :name,
    0.0,
    :name,
    :name,
    :name],
   ["Bikes", :name, :name, :name, :name, 0.0, :name, :name, :name],
   ["Rail", :name, :name, :name, :name, 0.0, :name, :name, :name],
   ["Domestic aviation", :name, :name, :name, :name, 0.0, :name, :name, :name],
   ["Domestic freight", :name, :name, :name, :name, 0.0, :name, :name, :name],
   ["International aviation",
    :name,
    :name,
    :name,
    :name,
    0.0,
    :name,
    :name,
    :name],
   ["International shipping (maritime bunkers)",
    :name,
    :name,
    :name,
    :name,
    0.0,
    :name,
    :name,
    :name],
   ["Geosequestration", :name, :name, :name, :name, 0.0, :name, :name, :name],
   ["Petroleum refineries",
    :name,
    :name,
    :name,
    :name,
    0.0,
    :name,
    :name,
    :name],
   ["Fossil fuel transfers",
    :name,
    :name,
    :name,
    :name,
    0.0,
    :name,
    :name,
    :name],
   ["District heating effective demand",
    :name,
    :name,
    :name,
    :name,
    0.0,
    :name,
    :name,
    :name],
   ["Storage of captured CO2",
    :name,
    :name,
    :name,
    :name,
    0.0,
    :name,
    :name,
    :name],
   ["Coal", :name, :name, :name, :name, 0.0, :name, :name, :name],
   ["Oil", :name, :name, :name, :name, 0.0, :name, :name, :name],
   ["Gas", :name, :name, :name, :name, 0.0, :name, :name, :name],
   ["Finance cost", 0.0, :name, :name, :name, 0.0, 0.0, 0.0, 0.0]],
 "map"=>
  [["Vector",
    2007.0,
    2010.0,
    2015.0,
    2020.0,
    2025.0,
    2030.0,
    2035.0,
    2040.0,
    2045.0,
    2050.0],
   ["III.a.1", :ref, :ref, :ref, :ref, :ref, :ref, :ref, :ref, :ref, :ref],
   ["III.b", :ref, :ref, :ref, :ref, :ref, :ref, :ref, :ref, :ref, :ref],
   ["IV.a", :ref, :ref, :ref, :ref, :ref, :ref, :ref, :ref, :ref, :ref],
   ["IV.b", :ref, :ref, :ref, :ref, :ref, :ref, :ref, :ref, :ref, :ref],
   ["IV.c", :ref, :ref, :ref, :ref, :ref, :ref, :ref, :ref, :ref, :ref],
   ["VI.a.Biocrop",
    :ref,
    :ref,
    :ref,
    :ref,
    :ref,
    :ref,
    :ref,
    :ref,
    :ref,
    :ref],
   ["VI.a.Forestry",
    :ref,
    :ref,
    :ref,
    :ref,
    :ref,
    :ref,
    :ref,
    :ref,
    :ref,
    :ref],
   ["III.a.2", :ref, :ref, :ref, :ref, :ref, :ref, :ref, :ref, :ref, :ref],
   ["III.c.TidalStream",
    :ref,
    :ref,
    :ref,
    :ref,
    :ref,
    :ref,
    :ref,
    :ref,
    :ref,
    :ref],
   ["III.c.TidalRange",
    :ref,
    :ref,
    :ref,
    :ref,
    :ref,
    :ref,
    :ref,
    :ref,
    :ref,
    :ref],
   ["VI.c", :ref, :ref, :ref, :ref, :ref, :ref, :ref, :ref, :ref, :ref],
   ["V.b", :ref, :ref, :na, :na, :na, :na, :na, :na, :na, :na],
   ["VII.a", :ref, :ref, :ref, :ref, :ref, :ref, :ref, :ref, :ref, :ref],
   ["III.c.Wave", :ref, :ref, :ref, :ref, :ref, :ref, :ref, :ref, :ref, :ref],
   ["I.a", :ref, :ref, 5.13, 8.65, 11.07, 12.65, 12.7, 11.22, 8.83, 6.35],
   ["I.b",
    :ref,
    :ref,
    10.0199,
    14.229800000000003,
    15.999699999999999,
    17.9996,
    24.9995,
    24.999400000000005,
    24.9993,
    24.999200000000002],
   ["II.a",
    :ref,
    :ref,
    1.209,
    3.9290000000000003,
    6.649000000000001,
    9.369000000000002,
    12.089000000000002,
    14.809000000000003,
    17.529000000000003,
    20.249000000000002],
   ["III.d", :ref, :ref, :ref, :ref, :ref, :ref, :ref, :ref, :ref, :ref],
   ["VII.c", :ref, :ref, :ref, :ref, :ref, :ref, :ref, :ref, :ref, :ref],
   ["VI.b", :ref, :ref, :ref, :ref, :ref, :ref, :ref, :ref, :ref, :ref]],
 "imports"=>
  {"proportion"=>
    [["Vector",
      2007.0,
      2010.0,
      2015.0,
      2020.0,
      2025.0,
      2030.0,
      2035.0,
      2040.0,
      2045.0,
      2050.0],
     ["Uranium",
      :name,
      :name,
      :name,
      :name,
      :name,
      :name,
      :name,
      :name,
      :name,
      :name],
     ["Electricity",
      :name,
      :name,
      :name,
      :name,
      :name,
      :name,
      :name,
      :name,
      :name,
      :name],
     ["Bioenergy",
      :name,
      :name,
      :name,
      :name,
      :name,
      :name,
      :name,
      :name,
      :name,
      :name],
     ["Coal",
      :name,
      :name,
      :name,
      :name,
      :name,
      :name,
      :name,
      :name,
      :name,
      :name],
     ["Oil",
      :name,
      :name,
      :name,
      :name,
      :name,
      :name,
      :name,
      :name,
      :name,
      :name],
     ["Gas",
      :name,
      :name,
      :name,
      :name,
      :name,
      :name,
      :name,
      :name,
      :name,
      :name],
     ["Total",
      :name,
      :name,
      :name,
      :name,
      :name,
      :name,
      :name,
      :name,
      :name,
      :name]],
   "quantity"=>
    [["Vector",
      2007.0,
      2010.0,
      2015.0,
      2020.0,
      2025.0,
      2030.0,
      2035.0,
      2040.0,
      2045.0,
      2050.0],
     ["Uranium",
      :name,
      :name,
      0.0,
      14.83926268271711,
      0.0,
      14.83926268271711,
      0.0,
      14.83926268271711,
      0.0,
      14.83926268271711],
     ["Electricity", :name, :name, :na, :na, :na, :na, :na, :na, :na, :na],
     ["Bioenergy", :name, :name, :na, :na, :na, :na, :na, :na, :na, :na],
     ["Coal", :name, :name, :na, :na, :na, :na, :na, :na, :na, :na],
     ["Oil", :name, :name, :na, :na, :na, :na, :na, :na, :na, :na],
     ["Gas", :name, :name, :na, :na, :na, :na, :na, :na, :na, :na],
     ["Total", :name, :name, :na, :na, :na, :na, :na, :na, :na, :na]]},
 "diversity"=>
  [["Vector",
    2007.0,
    2010.0,
    2015.0,
    2020.0,
    2025.0,
    2030.0,
    2035.0,
    2040.0,
    2045.0,
    2050.0],
   [0.0, :div0, :div0, :div0, :div0, :div0, :div0, :div0, :div0, :div0, :div0],
   [0.0, :div0, :div0, :div0, :div0, :div0, :div0, :div0, :div0, :div0, :div0],
   [0.0, :div0, :div0, :div0, :div0, :div0, :div0, :div0, :div0, :div0, :div0],
   [0.0, :div0, :div0, :div0, :div0, :div0, :div0, :div0, :div0, :div0, :div0],
   [0.0, :div0, :div0, :div0, :div0, :div0, :div0, :div0, :div0, :div0, :div0],
   [0.0, :div0, :div0, :div0, :div0, :div0, :div0, :div0, :div0, :div0, :div0],
   [0.0, :div0, :div0, :div0, :div0, :div0, :div0, :div0, :div0, :div0, :div0],
   ["Electricity imports",
    :div0,
    :div0,
    :div0,
    :div0,
    :div0,
    :div0,
    :div0,
    :div0,
    :div0,
    :div0],
   [0.0, :div0, :div0, :div0, :div0, :div0, :div0, :div0, :div0, :div0, :div0],
   [0.0, :div0, :div0, :div0, :div0, :div0, :div0, :div0, :div0, :div0, :div0],
   [0.0, :div0, :div0, :div0, :div0, :div0, :div0, :div0, :div0, :div0, :div0],
   ["Biomass imports",
    :div0,
    :div0,
    :div0,
    :div0,
    :div0,
    :div0,
    :div0,
    :div0,
    :div0,
    :div0],
   [0.0, :div0, :div0, :div0, :div0, :div0, :div0, :div0, :div0, :div0, :div0],
   ["Coal imports",
    :div0,
    :div0,
    :div0,
    :div0,
    :div0,
    :div0,
    :div0,
    :div0,
    :div0,
    :div0],
   [0.0, :div0, :div0, :div0, :div0, :div0, :div0, :div0, :div0, :div0, :div0],
   ["Oil imports",
    :div0,
    :div0,
    :div0,
    :div0,
    :div0,
    :div0,
    :div0,
    :div0,
    :div0,
    :div0],
   [0.0, :div0, :div0, :div0, :div0, :div0, :div0, :div0, :div0, :div0, :div0],
   ["Gas imports",
    :div0,
    :div0,
    :div0,
    :div0,
    :div0,
    :div0,
    :div0,
    :div0,
    :div0,
    :div0]],
 "balancing"=>
  [["GW installed capacity",
    2007.0,
    2010.0,
    2015.0,
    2020.0,
    2025.0,
    2030.0,
    2035.0,
    2040.0,
    2045.0,
    2050.0],
   ["Automatically built CCGT gas",
    :name,
    :name,
    :name,
    :name,
    :name,
    :name,
    :name,
    :name,
    :name,
    :name],
   ["Automatically built peaking gas",
    :name,
    :name,
    :name,
    :name,
    :name,
    :name,
    :name,
    :name,
    :name,
    :name]],
 "air_quality"=>[["High", :name], ["Low", :name]]}
